#1
double table(25,2)
   0   16
   1   14
   2   18
   3   10
   4   15
   5   43
   6   57
   7   91
   8  542
   9  124
  10   82
  11   59
  12   55
  13   65
  14   82
  15   75
  16   77
  17   58
  18   46
  19   70
  20   58
  21   21
  22   16
  23   15
  24   16

