<?xml version="1.0" encoding="UTF-8" standalone="no"?>
<!-- Created with Inkscape (http://www.inkscape.org/) -->

<svg
   xmlns:osb="http://www.openswatchbook.org/uri/2009/osb"
   xmlns:dc="http://purl.org/dc/elements/1.1/"
   xmlns:cc="http://creativecommons.org/ns#"
   xmlns:rdf="http://www.w3.org/1999/02/22-rdf-syntax-ns#"
   xmlns:svg="http://www.w3.org/2000/svg"
   xmlns="http://www.w3.org/2000/svg"
   xmlns:xlink="http://www.w3.org/1999/xlink"
   xmlns:sodipodi="http://sodipodi.sourceforge.net/DTD/sodipodi-0.dtd"
   xmlns:inkscape="http://www.inkscape.org/namespaces/inkscape"
   width="348.46637mm"
   height="210.63954mm"
   viewBox="0 0 348.46637 210.63954"
   version="1.1"
   id="svg8"
   inkscape:version="0.92.1 r15371"
   sodipodi:docname="EconDamperLimitsMultiZone.svg"
   inkscape:export-filename="C:\Users\mgrahovac\Google Drive\Simulation Research Group_\OBC\Drawings\EconDamperLimitsStateMachineChartSingleZone.png"
   inkscape:export-xdpi="96"
   inkscape:export-ydpi="96">
  <defs
     id="defs2">
    <marker
       inkscape:stockid="Arrow1Lstart"
       orient="auto"
       refY="0"
       refX="0"
       id="marker11858"
       style="overflow:visible"
       inkscape:isstock="true">
      <path
         id="path11856"
         d="M 0,0 5,-5 -12.5,0 5,5 Z"
         style="fill:#000000;fill-opacity:1;fill-rule:evenodd;stroke:#000000;stroke-width:1.00000003pt;stroke-opacity:1"
         transform="matrix(0.8,0,0,0.8,10,0)"
         inkscape:connector-curvature="0" />
    </marker>
    <marker
       inkscape:isstock="true"
       style="overflow:visible"
       id="marker11262"
       refX="0"
       refY="0"
       orient="auto"
       inkscape:stockid="Arrow1Lend">
      <path
         inkscape:connector-curvature="0"
         transform="matrix(-0.8,0,0,-0.8,-10,0)"
         style="fill:#000000;fill-opacity:1;fill-rule:evenodd;stroke:#000000;stroke-width:1.00000003pt;stroke-opacity:1"
         d="M 0,0 5,-5 -12.5,0 5,5 Z"
         id="path11260" />
    </marker>
    <marker
       inkscape:isstock="true"
       style="overflow:visible"
       id="marker11030"
       refX="0"
       refY="0"
       orient="auto"
       inkscape:stockid="Arrow1Lend">
      <path
         inkscape:connector-curvature="0"
         transform="matrix(-0.8,0,0,-0.8,-10,0)"
         style="fill:#808080;fill-opacity:1;fill-rule:evenodd;stroke:#000000;stroke-width:1.00000003pt;stroke-opacity:1"
         d="M 0,0 5,-5 -12.5,0 5,5 Z"
         id="path11028" />
    </marker>
    <marker
       inkscape:stockid="Arrow1Lend"
       orient="auto"
       refY="0"
       refX="0"
       id="marker10804"
       style="overflow:visible"
       inkscape:isstock="true">
      <path
         id="path10802"
         d="M 0,0 5,-5 -12.5,0 5,5 Z"
         style="fill:#000000;fill-opacity:1;fill-rule:evenodd;stroke:#000000;stroke-width:1.00000003pt;stroke-opacity:1"
         transform="matrix(-0.8,0,0,-0.8,-10,0)"
         inkscape:connector-curvature="0" />
    </marker>
    <marker
       inkscape:isstock="true"
       style="overflow:visible"
       id="marker10584"
       refX="0"
       refY="0"
       orient="auto"
       inkscape:stockid="Arrow1Lend">
      <path
         inkscape:connector-curvature="0"
         transform="matrix(-0.8,0,0,-0.8,-10,0)"
         style="fill:#000000;fill-opacity:1;fill-rule:evenodd;stroke:#000000;stroke-width:1.00000003pt;stroke-opacity:1"
         d="M 0,0 5,-5 -12.5,0 5,5 Z"
         id="path10582" />
    </marker>
    <marker
       inkscape:stockid="Arrow1Lend"
       orient="auto"
       refY="0"
       refX="0"
       id="marker10358"
       style="overflow:visible"
       inkscape:isstock="true">
      <path
         id="path10356"
         d="M 0,0 5,-5 -12.5,0 5,5 Z"
         style="fill:#000000;fill-opacity:1;fill-rule:evenodd;stroke:#000000;stroke-width:1.00000003pt;stroke-opacity:1"
         transform="matrix(-0.8,0,0,-0.8,-10,0)"
         inkscape:connector-curvature="0" />
    </marker>
    <marker
       inkscape:stockid="Arrow1Lend"
       orient="auto"
       refY="0"
       refX="0"
       id="marker10150"
       style="overflow:visible"
       inkscape:isstock="true">
      <path
         id="path10148"
         d="M 0,0 5,-5 -12.5,0 5,5 Z"
         style="fill:#000000;fill-opacity:1;fill-rule:evenodd;stroke:#000000;stroke-width:1.00000003pt;stroke-opacity:1"
         transform="matrix(-0.8,0,0,-0.8,-10,0)"
         inkscape:connector-curvature="0" />
    </marker>
    <marker
       inkscape:stockid="Arrow1Lend"
       orient="auto"
       refY="0"
       refX="0"
       id="marker9852"
       style="overflow:visible"
       inkscape:isstock="true">
      <path
         id="path9850"
         d="M 0,0 5,-5 -12.5,0 5,5 Z"
         style="fill:#000000;fill-opacity:1;fill-rule:evenodd;stroke:#000000;stroke-width:1.00000003pt;stroke-opacity:1"
         transform="matrix(-0.8,0,0,-0.8,-10,0)"
         inkscape:connector-curvature="0" />
    </marker>
    <marker
       inkscape:isstock="true"
       style="overflow:visible"
       id="marker9614"
       refX="0"
       refY="0"
       orient="auto"
       inkscape:stockid="Arrow2Lstart">
      <path
         inkscape:connector-curvature="0"
         transform="matrix(1.1,0,0,1.1,1.1,0)"
         d="M 8.7185878,4.0337352 -2.2072895,0.01601326 8.7185884,-4.0017078 c -1.7454984,2.3720609 -1.7354408,5.6174519 -6e-7,8.035443 z"
         style="fill:#000000;fill-opacity:1;fill-rule:evenodd;stroke:#000000;stroke-width:0.625;stroke-linejoin:round;stroke-opacity:1"
         id="path9612" />
    </marker>
    <marker
       inkscape:isstock="true"
       style="overflow:visible"
       id="marker9424"
       refX="0"
       refY="0"
       orient="auto"
       inkscape:stockid="Arrow1Lend"
       inkscape:collect="always">
      <path
         inkscape:connector-curvature="0"
         transform="matrix(-0.8,0,0,-0.8,-10,0)"
         style="fill:#000000;fill-opacity:1;fill-rule:evenodd;stroke:#000000;stroke-width:1.00000003pt;stroke-opacity:1"
         d="M 0,0 5,-5 -12.5,0 5,5 Z"
         id="path9422" />
    </marker>
    <marker
       inkscape:isstock="true"
       style="overflow:visible"
       id="marker9336"
       refX="0"
       refY="0"
       orient="auto"
       inkscape:stockid="Arrow1Lend">
      <path
         inkscape:connector-curvature="0"
         transform="matrix(-0.8,0,0,-0.8,-10,0)"
         style="fill:#000000;fill-opacity:1;fill-rule:evenodd;stroke:#000000;stroke-width:1.00000003pt;stroke-opacity:1"
         d="M 0,0 5,-5 -12.5,0 5,5 Z"
         id="path9334" />
    </marker>
    <marker
       inkscape:stockid="Arrow1Lstart"
       orient="auto"
       refY="0"
       refX="0"
       id="Arrow1Lstart"
       style="overflow:visible"
       inkscape:isstock="true"
       inkscape:collect="always">
      <path
         id="path8151"
         d="M 0,0 5,-5 -12.5,0 5,5 Z"
         style="fill:#000000;fill-opacity:1;fill-rule:evenodd;stroke:#000000;stroke-width:1.00000003pt;stroke-opacity:1"
         transform="matrix(0.8,0,0,0.8,10,0)"
         inkscape:connector-curvature="0" />
    </marker>
    <marker
       inkscape:stockid="Arrow1Lend"
       orient="auto"
       refY="0"
       refX="0"
       id="Arrow1Lend"
       style="overflow:visible"
       inkscape:isstock="true"
       inkscape:collect="always">
      <path
         id="path6101"
         d="M 0,0 5,-5 -12.5,0 5,5 Z"
         style="fill:#000000;fill-opacity:1;fill-rule:evenodd;stroke:#000000;stroke-width:1.00000003pt;stroke-opacity:1"
         transform="matrix(-0.8,0,0,-0.8,-10,0)"
         inkscape:connector-curvature="0" />
    </marker>
    <marker
       inkscape:stockid="Arrow1Mend"
       orient="auto"
       refY="0"
       refX="0"
       id="marker10000"
       style="overflow:visible"
       inkscape:isstock="true">
      <path
         id="path9998"
         d="M 0,0 5,-5 -12.5,0 5,5 Z"
         style="fill:#4d4d4d;fill-opacity:1;fill-rule:evenodd;stroke:#000000;stroke-width:1.00000003pt;stroke-opacity:1"
         transform="matrix(-0.4,0,0,-0.4,-4,0)"
         inkscape:connector-curvature="0" />
    </marker>
    <marker
       inkscape:isstock="true"
       style="overflow:visible"
       id="marker9822"
       refX="0"
       refY="0"
       orient="auto"
       inkscape:stockid="Arrow1Mstart">
      <path
         transform="matrix(0.4,0,0,0.4,4,0)"
         style="fill:#4d4d4d;fill-opacity:1;fill-rule:evenodd;stroke:#000000;stroke-width:1.00000003pt;stroke-opacity:1"
         d="M 0,0 5,-5 -12.5,0 5,5 Z"
         id="path9820"
         inkscape:connector-curvature="0" />
    </marker>
    <marker
       inkscape:isstock="true"
       style="overflow:visible"
       id="marker9650"
       refX="0"
       refY="0"
       orient="auto"
       inkscape:stockid="Arrow1Mend"
       inkscape:collect="always">
      <path
         transform="matrix(-0.4,0,0,-0.4,-4,0)"
         style="fill:#4d4d4d;fill-opacity:1;fill-rule:evenodd;stroke:#000000;stroke-width:1.00000003pt;stroke-opacity:1"
         d="M 0,0 5,-5 -12.5,0 5,5 Z"
         id="path9648"
         inkscape:connector-curvature="0" />
    </marker>
    <marker
       inkscape:stockid="Arrow1Mstart"
       orient="auto"
       refY="0"
       refX="0"
       id="marker9484"
       style="overflow:visible"
       inkscape:isstock="true"
       inkscape:collect="always">
      <path
         id="path9482"
         d="M 0,0 5,-5 -12.5,0 5,5 Z"
         style="fill:#4d4d4d;fill-opacity:1;fill-rule:evenodd;stroke:#000000;stroke-width:1.00000003pt;stroke-opacity:1"
         transform="matrix(0.4,0,0,0.4,4,0)"
         inkscape:connector-curvature="0" />
    </marker>
    <marker
       inkscape:isstock="true"
       style="overflow:visible"
       id="marker9017"
       refX="0"
       refY="0"
       orient="auto"
       inkscape:stockid="Arrow1Mend">
      <path
         transform="matrix(-0.4,0,0,-0.4,-4,0)"
         style="fill:#000000;fill-opacity:1;fill-rule:evenodd;stroke:#000000;stroke-width:1.00000003pt;stroke-opacity:1"
         d="M 0,0 5,-5 -12.5,0 5,5 Z"
         id="path9015"
         inkscape:connector-curvature="0" />
    </marker>
    <linearGradient
       inkscape:collect="always"
       id="linearGradient8627">
      <stop
         style="stop-color:#000000;stop-opacity:1;"
         offset="0"
         id="stop8623" />
      <stop
         style="stop-color:#000000;stop-opacity:0;"
         offset="1"
         id="stop8625" />
    </linearGradient>
    <marker
       inkscape:stockid="Arrow1Mend"
       orient="auto"
       refY="0"
       refX="0"
       id="marker7178"
       style="overflow:visible"
       inkscape:isstock="true">
      <path
         id="path7176"
         d="M 0,0 5,-5 -12.5,0 5,5 Z"
         style="fill:#000000;fill-opacity:1;fill-rule:evenodd;stroke:#000000;stroke-width:1.00000003pt;stroke-opacity:1"
         transform="matrix(-0.4,0,0,-0.4,-4,0)"
         inkscape:connector-curvature="0" />
    </marker>
    <marker
       inkscape:stockid="Arrow1Mend"
       orient="auto"
       refY="0"
       refX="0"
       id="marker7032"
       style="overflow:visible"
       inkscape:isstock="true">
      <path
         id="path7030"
         d="M 0,0 5,-5 -12.5,0 5,5 Z"
         style="fill:#000000;fill-opacity:1;fill-rule:evenodd;stroke:#000000;stroke-width:1.00000003pt;stroke-opacity:1"
         transform="matrix(-0.4,0,0,-0.4,-4,0)"
         inkscape:connector-curvature="0" />
    </marker>
    <marker
       inkscape:stockid="Arrow1Mend"
       orient="auto"
       refY="0"
       refX="0"
       id="marker6966"
       style="overflow:visible"
       inkscape:isstock="true">
      <path
         id="path6964"
         d="M 0,0 5,-5 -12.5,0 5,5 Z"
         style="fill:#000000;fill-opacity:1;fill-rule:evenodd;stroke:#000000;stroke-width:1.00000003pt;stroke-opacity:1"
         transform="matrix(-0.4,0,0,-0.4,-4,0)"
         inkscape:connector-curvature="0" />
    </marker>
    <marker
       inkscape:stockid="Arrow1Mstart"
       orient="auto"
       refY="0"
       refX="0"
       id="marker6908"
       style="overflow:visible"
       inkscape:isstock="true">
      <path
         id="path6906"
         d="M 0,0 5,-5 -12.5,0 5,5 Z"
         style="fill:#000000;fill-opacity:1;fill-rule:evenodd;stroke:#000000;stroke-width:1.00000003pt;stroke-opacity:1"
         transform="matrix(0.4,0,0,0.4,4,0)"
         inkscape:connector-curvature="0" />
    </marker>
    <marker
       inkscape:stockid="Arrow1Mstart"
       orient="auto"
       refY="0"
       refX="0"
       id="marker6856"
       style="overflow:visible"
       inkscape:isstock="true">
      <path
         id="path6854"
         d="M 0,0 5,-5 -12.5,0 5,5 Z"
         style="fill:#000000;fill-opacity:1;fill-rule:evenodd;stroke:#000000;stroke-width:1.00000003pt;stroke-opacity:1"
         transform="matrix(0.4,0,0,0.4,4,0)"
         inkscape:connector-curvature="0" />
    </marker>
    <marker
       inkscape:stockid="Arrow1Mstart"
       orient="auto"
       refY="0"
       refX="0"
       id="marker6810"
       style="overflow:visible"
       inkscape:isstock="true">
      <path
         id="path6808"
         d="M 0,0 5,-5 -12.5,0 5,5 Z"
         style="fill:#808080;fill-opacity:1;fill-rule:evenodd;stroke:#000000;stroke-width:1.00000003pt;stroke-opacity:1"
         transform="matrix(0.4,0,0,0.4,4,0)"
         inkscape:connector-curvature="0" />
    </marker>
    <marker
       inkscape:stockid="Arrow1Mstart"
       orient="auto"
       refY="0"
       refX="0"
       id="Arrow1Mstart"
       style="overflow:visible"
       inkscape:isstock="true">
      <path
         id="path6104"
         d="M 0,0 5,-5 -12.5,0 5,5 Z"
         style="fill:#333333;fill-opacity:1;fill-rule:evenodd;stroke:#000000;stroke-width:1.00000003pt;stroke-opacity:1"
         transform="matrix(0.4,0,0,0.4,4,0)"
         inkscape:connector-curvature="0" />
    </marker>
    <marker
       inkscape:stockid="Arrow1Mend"
       orient="auto"
       refY="0"
       refX="0"
       id="Arrow1Mend"
       style="overflow:visible"
       inkscape:isstock="true">
      <path
         id="path6107"
         d="M 0,0 5,-5 -12.5,0 5,5 Z"
         style="fill:#000000;fill-opacity:1;fill-rule:evenodd;stroke:#000000;stroke-width:1.00000003pt;stroke-opacity:1"
         transform="matrix(-0.4,0,0,-0.4,-4,0)"
         inkscape:connector-curvature="0" />
    </marker>
    <marker
       inkscape:stockid="Arrow2Lstart"
       orient="auto"
       refY="0"
       refX="0"
       id="Arrow2Lstart"
       style="overflow:visible"
       inkscape:isstock="true"
       inkscape:collect="always">
      <path
         id="path6116"
         style="fill:#000000;fill-opacity:1;fill-rule:evenodd;stroke:#000000;stroke-width:0.625;stroke-linejoin:round;stroke-opacity:1"
         d="M 8.7185878,4.0337352 -2.2072895,0.01601326 8.7185884,-4.0017078 c -1.7454984,2.3720609 -1.7354408,5.6174519 -6e-7,8.035443 z"
         transform="matrix(1.1,0,0,1.1,1.1,0)"
         inkscape:connector-curvature="0" />
    </marker>
    <marker
       inkscape:stockid="Arrow2Lend"
       orient="auto"
       refY="0"
       refX="0"
       id="Arrow2Lend"
       style="overflow:visible"
       inkscape:isstock="true">
      <path
         id="path6119"
         style="fill:#000000;fill-opacity:1;fill-rule:evenodd;stroke:#000000;stroke-width:0.625;stroke-linejoin:round;stroke-opacity:1"
         d="M 8.7185878,4.0337352 -2.2072895,0.01601326 8.7185884,-4.0017078 c -1.7454984,2.3720609 -1.7354408,5.6174519 -6e-7,8.035443 z"
         transform="matrix(-1.1,0,0,-1.1,-1.1,0)"
         inkscape:connector-curvature="0" />
    </marker>
    <marker
       inkscape:stockid="Arrow1Lend"
       orient="auto"
       refY="0"
       refX="0"
       id="marker5553"
       style="overflow:visible"
       inkscape:isstock="true">
      <path
         id="path5551"
         d="M 0,0 5,-5 -12.5,0 5,5 Z"
         style="fill:#000000;fill-opacity:1;fill-rule:evenodd;stroke:#000000;stroke-width:1.00000003pt;stroke-opacity:1"
         transform="matrix(-0.8,0,0,-0.8,-10,0)"
         inkscape:connector-curvature="0" />
    </marker>
    <marker
       inkscape:stockid="Arrow1Lstart"
       orient="auto"
       refY="0"
       refX="0"
       id="marker5421"
       style="overflow:visible"
       inkscape:isstock="true">
      <path
         id="path5419"
         d="M 0,0 5,-5 -12.5,0 5,5 Z"
         style="fill:#000000;fill-opacity:1;fill-rule:evenodd;stroke:#000000;stroke-width:1.00000003pt;stroke-opacity:1"
         transform="matrix(0.8,0,0,0.8,10,0)"
         inkscape:connector-curvature="0" />
    </marker>
    <marker
       inkscape:stockid="Arrow1Lend"
       orient="auto"
       refY="0"
       refX="0"
       id="marker5381"
       style="overflow:visible"
       inkscape:isstock="true">
      <path
         id="path5379"
         d="M 0,0 5,-5 -12.5,0 5,5 Z"
         style="fill:#000000;fill-opacity:1;fill-rule:evenodd;stroke:#000000;stroke-width:1.00000003pt;stroke-opacity:1"
         transform="matrix(-0.8,0,0,-0.8,-10,0)"
         inkscape:connector-curvature="0" />
    </marker>
    <linearGradient
       osb:paint="gradient"
       id="linearGradient5363">
      <stop
         id="stop5359"
         offset="0"
         style="stop-color:#000000;stop-opacity:1;" />
      <stop
         id="stop5361"
         offset="1"
         style="stop-color:#000000;stop-opacity:0;" />
    </linearGradient>
    <inkscape:perspective
       id="perspective3736"
       inkscape:persp3d-origin="393.06685 : 369.11178 : 1"
       inkscape:vp_z="789.91725 : 556.19837 : 1"
       inkscape:vp_y="0 : 3779.5274 : 0"
       inkscape:vp_x="-3.783534 : 556.19837 : 1"
       sodipodi:type="inkscape:persp3d" />
    <inkscape:perspective
       id="perspective3734"
       inkscape:persp3d-origin="392.56572 : 372.69488 : 1"
       inkscape:vp_z="789.41612 : 559.78146 : 1"
       inkscape:vp_y="0 : 3779.5274 : 0"
       inkscape:vp_x="-4.2846643 : 559.78146 : 1"
       sodipodi:type="inkscape:persp3d" />
    <inkscape:perspective
       id="perspective3690"
       inkscape:persp3d-origin="102.21036 : 95.558897 : 1"
       inkscape:vp_z="207.21036 : 145.05889 : 1"
       inkscape:vp_y="0 : 999.99992 : 0"
       inkscape:vp_x="-2.7896254 : 145.05889 : 1"
       sodipodi:type="inkscape:persp3d" />
    <marker
       style="overflow:visible"
       orient="auto"
       overflow="visible"
       id="marker5553-0">
      <path
         inkscape:connector-curvature="0"
         style="fill-rule:evenodd;stroke:#000000;stroke-width:1.00000003pt"
         id="path4485"
         d="M 0,0 5,-5 -12.5,0 5,5 Z"
         transform="matrix(-0.8,0,0,-0.8,-10,0)" />
    </marker>
    <marker
       style="overflow:visible"
       orient="auto"
       overflow="visible"
       id="marker5381-6">
      <path
         inkscape:connector-curvature="0"
         style="fill-rule:evenodd;stroke:#000000;stroke-width:1.00000003pt"
         id="path4488"
         d="M 0,0 5,-5 -12.5,0 5,5 Z"
         transform="matrix(-0.8,0,0,-0.8,-10,0)" />
    </marker>
    <marker
       style="overflow:visible"
       orient="auto"
       overflow="visible"
       id="marker5553-0-3">
      <path
         inkscape:connector-curvature="0"
         style="fill-rule:evenodd;stroke:#000000;stroke-width:1.00000003pt"
         id="path4485-1"
         d="M 0,0 5,-5 -12.5,0 5,5 Z"
         transform="matrix(-0.8,0,0,-0.8,-10,0)" />
    </marker>
    <marker
       style="overflow:visible"
       orient="auto"
       overflow="visible"
       id="marker5381-6-6">
      <path
         inkscape:connector-curvature="0"
         style="fill-rule:evenodd;stroke:#000000;stroke-width:1.00000003pt"
         id="path4488-0"
         d="M 0,0 5,-5 -12.5,0 5,5 Z"
         transform="matrix(-0.8,0,0,-0.8,-10,0)" />
    </marker>
    <linearGradient
       inkscape:collect="always"
       xlink:href="#linearGradient8627"
       id="linearGradient8629"
       x1="106.91238"
       y1="205.60521"
       x2="128.72218"
       y2="205.60521"
       gradientUnits="userSpaceOnUse" />
    <marker
       style="overflow:visible"
       orient="auto"
       overflow="visible"
       id="marker5553-0-3-7">
      <path
         inkscape:connector-curvature="0"
         style="fill-rule:evenodd;stroke:#000000;stroke-width:1.00000003pt"
         id="path4485-1-2"
         d="M 0,0 5,-5 -12.5,0 5,5 Z"
         transform="matrix(-0.8,0,0,-0.8,-10,0)" />
    </marker>
    <marker
       style="overflow:visible"
       orient="auto"
       overflow="visible"
       id="marker5381-6-6-9">
      <path
         inkscape:connector-curvature="0"
         style="fill-rule:evenodd;stroke:#000000;stroke-width:1.00000003pt"
         id="path4488-0-9"
         d="M 0,0 5,-5 -12.5,0 5,5 Z"
         transform="matrix(-0.8,0,0,-0.8,-10,0)" />
    </marker>
    <marker
       inkscape:stockid="Arrow1Mstart"
       orient="auto"
       refY="0"
       refX="0"
       id="Arrow1Mstart-7"
       style="overflow:visible"
       inkscape:isstock="true">
      <path
         id="path6104-1"
         d="M 0,0 5,-5 -12.5,0 5,5 Z"
         style="fill:#333333;fill-opacity:1;fill-rule:evenodd;stroke:#000000;stroke-width:1.00000003pt;stroke-opacity:1"
         transform="matrix(0.4,0,0,0.4,4,0)"
         inkscape:connector-curvature="0" />
    </marker>
    <marker
       style="overflow:visible"
       orient="auto"
       overflow="visible"
       id="marker5553-0-3-8">
      <path
         inkscape:connector-curvature="0"
         style="fill-rule:evenodd;stroke:#000000;stroke-width:1.00000003pt"
         id="path4485-1-8"
         d="M 0,0 5,-5 -12.5,0 5,5 Z"
         transform="matrix(-0.8,0,0,-0.8,-10,0)" />
    </marker>
    <marker
       style="overflow:visible"
       orient="auto"
       overflow="visible"
       id="marker5381-6-6-6">
      <path
         inkscape:connector-curvature="0"
         style="fill-rule:evenodd;stroke:#000000;stroke-width:1.00000003pt"
         id="path4488-0-3"
         d="M 0,0 5,-5 -12.5,0 5,5 Z"
         transform="matrix(-0.8,0,0,-0.8,-10,0)" />
    </marker>
    <marker
       inkscape:stockid="Arrow1Mstart"
       orient="auto"
       refY="0"
       refX="0"
       id="Arrow1Mstart-5"
       style="overflow:visible"
       inkscape:isstock="true">
      <path
         id="path6104-8"
         d="M 0,0 5,-5 -12.5,0 5,5 Z"
         style="fill:#333333;fill-opacity:1;fill-rule:evenodd;stroke:#000000;stroke-width:1.00000003pt;stroke-opacity:1"
         transform="matrix(0.4,0,0,0.4,4,0)"
         inkscape:connector-curvature="0" />
    </marker>
  </defs>
  <sodipodi:namedview
     id="base"
     pagecolor="#ffffff"
     bordercolor="#666666"
     borderopacity="1.0"
     inkscape:pageopacity="0.0"
     inkscape:pageshadow="2"
     inkscape:zoom="0.25000001"
     inkscape:cx="1904.7605"
     inkscape:cy="760.9814"
     inkscape:document-units="mm"
     inkscape:current-layer="layer1"
     showgrid="false"
     inkscape:window-width="1920"
     inkscape:window-height="1027"
     inkscape:window-x="-8"
     inkscape:window-y="-8"
     inkscape:window-maximized="1"
     inkscape:snap-bbox="true"
     inkscape:bbox-paths="true"
     fit-margin-top="0"
     fit-margin-left="0"
     fit-margin-right="0"
     fit-margin-bottom="0" />
  <metadata
     id="metadata5">
    <rdf:RDF>
      <cc:Work
         rdf:about="">
        <dc:format>image/svg+xml</dc:format>
        <dc:type
           rdf:resource="http://purl.org/dc/dcmitype/StillImage" />
        <dc:title></dc:title>
      </cc:Work>
    </rdf:RDF>
  </metadata>
  <g
     inkscape:label="Layer 1"
     inkscape:groupmode="layer"
     id="layer1"
     transform="translate(343.89778,-121.3896)">
    <text
       xml:space="preserve"
       style="font-style:normal;font-weight:normal;font-size:4.23333311px;line-height:1.25;font-family:sans-serif;letter-spacing:0px;word-spacing:0px;fill:#000000;fill-opacity:1;stroke:none;stroke-width:0.26458332"
       x="-341.94748"
       y="142.16357"
       id="text4487"><tspan
         sodipodi:role="line"
         id="tspan4485"
         x="-341.94748"
         y="142.16357"
         style="font-size:4.23333311px;fill:#000000;stroke-width:0.26458332">uVOutMinSet</tspan></text>
    <path
       sodipodi:type="inkscape:offset"
       inkscape:radius="0.83080333"
       inkscape:original="M 60.140625 50.361328 L 60.140625 59.144531 L 75.072266 59.144531 L 75.072266 50.361328 L 60.140625 50.361328 z "
       style="fill:#333333;fill-opacity:0;stroke:#000000;stroke-width:0.1;stroke-miterlimit:4;stroke-dasharray:none;stroke-opacity:1"
       id="rect4491-8-3"
       d="m 60.140625,49.53125 a 0.83088642,0.83088642 0 0 0 -0.830078,0.830078 v 8.783203 a 0.83088642,0.83088642 0 0 0 0.830078,0.830078 h 14.931641 a 0.83088642,0.83088642 0 0 0 0.830078,-0.830078 V 50.361328 A 0.83088642,0.83088642 0 0 0 75.072266,49.53125 Z"
       transform="translate(-354.85512,91.226603)" />
    <circle
       style="fill:#333333;fill-opacity:0;stroke:#000000;stroke-width:0.1;stroke-miterlimit:4;stroke-dasharray:none;stroke-opacity:1"
       id="path6054"
       cx="-309.34885"
       cy="145.86095"
       r="1.403165" />
    <circle
       style="fill:#808080;fill-opacity:0;stroke:#000000;stroke-width:0.1;stroke-miterlimit:4;stroke-dasharray:none;stroke-opacity:1"
       id="path6054-5"
       cx="-214.08798"
       cy="145.84242"
       r="1.403165" />
    <path
       style="fill:#333333;fill-rule:evenodd;stroke:#000000;stroke-width:0.26458332px;stroke-linecap:butt;stroke-linejoin:miter;stroke-opacity:1"
       d="m -309.96403,243.00591 v 0"
       id="path6094"
       inkscape:connector-type="polyline"
       inkscape:connector-curvature="0" />
    <text
       xml:space="preserve"
       style="font-style:normal;font-weight:normal;font-size:4.23333311px;line-height:1.25;font-family:sans-serif;letter-spacing:0px;word-spacing:0px;fill:#666666;fill-opacity:1;stroke:none;stroke-width:0.26458332"
       x="-289.52628"
       y="147.12572"
       id="text4487-4"><tspan
         sodipodi:role="line"
         id="tspan4485-8"
         x="-289.52628"
         y="147.12572"
         style="font-size:4.23333311px;fill:#666666;stroke-width:0.26458332">PI</tspan></text>
    <text
       xml:space="preserve"
       style="font-style:normal;font-weight:normal;font-size:4.23333311px;line-height:1.25;font-family:sans-serif;letter-spacing:0px;word-spacing:0px;fill:#666666;fill-opacity:1;stroke:none;stroke-width:0.26458332"
       x="70.230209"
       y="57.89806"
       id="text6672"><tspan
         sodipodi:role="line"
         id="tspan6670"
         x="70.230209"
         y="61.760258"
         style="font-size:2.11666656px;fill:#666666;stroke-width:0.26458332" /></text>
    <path
       sodipodi:type="inkscape:offset"
       inkscape:radius="0.83080333"
       inkscape:original="M 60.140625 50.361328 L 60.140625 59.144531 L 75.072266 59.144531 L 75.072266 50.361328 L 60.140625 50.361328 z "
       style="fill:#333333;fill-opacity:0;stroke:#000000;stroke-width:0.04824781;stroke-miterlimit:4;stroke-dasharray:none;stroke-opacity:1"
       id="rect4491-8-3-05"
       d="m 60.140625,49.53125 a 0.83088642,0.83088642 0 0 0 -0.830078,0.830078 v 8.783203 a 0.83088642,0.83088642 0 0 0 0.830078,0.830078 h 14.931641 a 0.83088642,0.83088642 0 0 0 0.830078,-0.830078 V 50.361328 A 0.83088642,0.83088642 0 0 0 75.072266,49.53125 Z"
       transform="matrix(2.3020533,0,0,1.8660764,-406.26075,43.599618)" />
    <text
       xml:space="preserve"
       style="font-style:normal;font-weight:normal;font-size:4.23333311px;line-height:1.25;font-family:sans-serif;letter-spacing:0px;word-spacing:0px;fill:#333333;fill-opacity:1;stroke:none;stroke-width:0.26458332"
       x="-268.39755"
       y="139.4906"
       id="text4487-4-6"><tspan
         sodipodi:role="line"
         id="tspan4485-8-9"
         x="-268.39755"
         y="139.4906"
         style="font-size:2.82222223px;fill:#333333;stroke-width:0.26458332">Damper position limits</tspan></text>
    <text
       xml:space="preserve"
       style="font-style:normal;font-weight:normal;font-size:4.23333311px;line-height:1.25;font-family:sans-serif;letter-spacing:0px;word-spacing:0px;fill:#000000;fill-opacity:1;stroke:none;stroke-width:0.26458332"
       x="-268.39752"
       y="144.27902"
       id="text4487-4-1"><tspan
         sodipodi:role="line"
         id="tspan4485-8-3"
         x="-268.39752"
         y="144.27902"
         style="font-size:4.23333311px;line-height:1.39999998;fill:#000000;stroke-width:0.26458332">yOutDamPosMin</tspan><tspan
         sodipodi:role="line"
         x="-268.39752"
         y="150.20569"
         style="font-size:4.23333311px;line-height:1.39999998;fill:#000000;stroke-width:0.26458332"
         id="tspan6753">yRetDamPosMax</tspan></text>
    <path
       style="fill:#333333;fill-rule:evenodd;stroke:#000000;stroke-width:0.26458332px;stroke-linecap:butt;stroke-linejoin:miter;stroke-opacity:1"
       d="m -278.95278,145.93269 9.22807,-0.0521"
       id="path6802"
       inkscape:connector-type="polyline"
       inkscape:connector-curvature="0"
       inkscape:connection-start="#rect4491-8-3"
       inkscape:connection-end="#rect4491-8-3-05" />
    <path
       style="fill:#808080;fill-rule:evenodd;stroke:#000000;stroke-width:0.149;stroke-linecap:butt;stroke-linejoin:miter;stroke-miterlimit:4;stroke-dasharray:0.149, 0.298;stroke-dashoffset:0;stroke-opacity:1;marker-end:url(#marker11030)"
       d="m -231.52951,145.80918 16.03838,0.0306"
       id="path7028"
       inkscape:connector-type="polyline"
       inkscape:connector-curvature="0"
       inkscape:connection-start="#rect4491-8-3-05"
       inkscape:connection-end="#path6054-5" />
    <text
       xml:space="preserve"
       style="font-style:normal;font-weight:normal;font-size:4.23333311px;line-height:1.25;font-family:sans-serif;letter-spacing:0px;word-spacing:0px;fill:#808080;fill-opacity:1;stroke:none;stroke-width:0.26458332"
       x="-210.92709"
       y="125.49857"
       id="text4487-4-1-7"><tspan
         sodipodi:role="line"
         id="tspan4485-8-3-0"
         x="-210.92709"
         y="125.49857"
         style="font-size:4.23333311px;fill:#808080;stroke-width:0.26458332">yRetDamPos</tspan><tspan
         sodipodi:role="line"
         x="-210.92709"
         y="130.79024"
         style="font-size:4.23333311px;fill:#808080;stroke-width:0.26458332"
         id="tspan6753-9">yOutDamPos</tspan></text>
    <text
       xml:space="preserve"
       style="font-style:normal;font-weight:normal;font-size:4.23333311px;line-height:1.25;font-family:sans-serif;letter-spacing:0px;word-spacing:0px;fill:#808080;fill-opacity:1;stroke:none;stroke-width:0.26458332"
       x="-210.29785"
       y="144.52449"
       id="text4487-4-9"><tspan
         sodipodi:role="line"
         id="tspan4485-8-7"
         x="-210.29785"
         y="144.52449"
         style="font-size:4.23333311px;fill:#808080;stroke-width:0.26458332">VOut</tspan></text>
    <path
       sodipodi:type="inkscape:offset"
       inkscape:radius="0.83080333"
       inkscape:original="M 60.140625 50.361328 L 60.140625 59.144531 L 75.072266 59.144531 L 75.072266 50.361328 L 60.140625 50.361328 z "
       style="fill:#333333;fill-opacity:0;stroke:#000000;stroke-width:0.1;stroke-miterlimit:4;stroke-dasharray:none;stroke-opacity:1"
       id="rect4491-8-3-2"
       d="m 60.140625,49.53125 a 0.83088642,0.83088642 0 0 0 -0.830078,0.830078 v 8.783203 a 0.83088642,0.83088642 0 0 0 0.830078,0.830078 h 14.931641 a 0.83088642,0.83088642 0 0 0 0.830078,-0.830078 V 50.361328 A 0.83088642,0.83088642 0 0 0 75.072266,49.53125 Z"
       transform="translate(-354.73548,114.70487)" />
    <text
       xml:space="preserve"
       style="font-style:normal;font-weight:normal;font-size:4.23333311px;line-height:1.25;font-family:sans-serif;letter-spacing:0px;word-spacing:0px;fill:#666666;fill-opacity:1;stroke:none;stroke-width:0.26458332"
       x="-294.62219"
       y="170.75546"
       id="text4487-4-3"><tspan
         sodipodi:role="line"
         id="tspan4485-8-2"
         x="-294.62219"
         y="170.75546"
         style="font-size:4.23333311px;fill:#666666;stroke-width:0.26458332">Sensor</tspan></text>
    <path
       style="opacity:0;fill:#333333;fill-rule:evenodd;stroke:none;stroke-width:0.26458332px;stroke-linecap:butt;stroke-linejoin:miter;stroke-opacity:1"
       d="m -298.02501,263.89386 v 0"
       id="path7626"
       inkscape:connector-type="polyline"
       inkscape:connector-curvature="0" />
    <path
       style="fill:#333333;fill-rule:evenodd;stroke:#000000;stroke-width:0.26458332px;stroke-linecap:butt;stroke-linejoin:miter;stroke-opacity:1"
       d="m -307.94573,145.86848 12.40116,0.0665"
       id="path7640"
       inkscape:connector-type="polyline"
       inkscape:connector-curvature="0"
       inkscape:connection-start="#path6054"
       inkscape:connection-end="#rect4491-8-3" />
    <path
       sodipodi:type="inkscape:offset"
       inkscape:radius="0.83080333"
       inkscape:original="M 60.140625 50.361328 L 60.140625 59.144531 L 75.072266 59.144531 L 75.072266 50.361328 L 60.140625 50.361328 z "
       style="opacity:0;fill:none;fill-opacity:0;stroke:none;stroke-width:0.1;stroke-miterlimit:4;stroke-dasharray:none;stroke-opacity:1"
       id="rect4491-8-3-2-6"
       d="m 60.140625,49.53125 a 0.83088642,0.83088642 0 0 0 -0.830078,0.830078 v 8.783203 a 0.83088642,0.83088642 0 0 0 0.830078,0.830078 h 14.931641 a 0.83088642,0.83088642 0 0 0 0.830078,-0.830078 V 50.361328 A 0.83088642,0.83088642 0 0 0 75.072266,49.53125 Z"
       transform="translate(-281.8316,114.95493)" />
    <path
       sodipodi:type="inkscape:offset"
       inkscape:radius="0.83080333"
       inkscape:original="M 60.140625 50.361328 L 60.140625 59.144531 L 75.072266 59.144531 L 75.072266 50.361328 L 60.140625 50.361328 z "
       style="opacity:0;fill:#333333;fill-opacity:0;stroke:none;stroke-width:0.1;stroke-miterlimit:4;stroke-dasharray:none;stroke-opacity:1"
       id="rect4491-8-3-2-6-0"
       d="m 60.140625,49.53125 a 0.83088642,0.83088642 0 0 0 -0.830078,0.830078 v 8.783203 a 0.83088642,0.83088642 0 0 0 0.830078,0.830078 h 14.931641 a 0.83088642,0.83088642 0 0 0 0.830078,-0.830078 V 50.361328 A 0.83088642,0.83088642 0 0 0 75.072266,49.53125 Z"
       transform="translate(-376.90572,114.65825)" />
    <text
       xml:space="preserve"
       style="font-style:normal;font-weight:normal;font-size:4.23333311px;line-height:1.25;font-family:sans-serif;letter-spacing:0px;word-spacing:0px;fill:#000000;fill-opacity:1;stroke:none;stroke-width:0.26458332"
       x="-324.69348"
       y="154.73788"
       id="text4487-8"><tspan
         sodipodi:role="line"
         id="tspan4485-5"
         x="-324.69348"
         y="154.73788"
         style="font-size:4.23333311px;fill:#000000;stroke-width:0.26458332">uVOut</tspan></text>
    <path
       inkscape:connector-curvature="0"
       style="fill:none;fill-opacity:1;stroke:#000000;stroke-width:0.11130211;stroke-opacity:0.66666667"
       id="path4497-0"
       d="m -263.91654,331.65916 c -14.09484,-1.23525 -25.57235,-4.79925 -31.55613,-9.79879 -2.84068,-2.37342 -3.69078,-3.93893 -3.69078,-6.79702 0,-2.82906 0.82763,-4.38249 3.58133,-6.72203 5.6923,-4.83575 16.07915,-8.19846 29.90774,-9.68267 6.10194,-0.65489 15.9056,-0.70005 21.95751,-0.10111 11.95774,1.18327 21.29637,3.69872 27.68085,7.45637 8.29644,4.88227 9.39626,10.85009 2.97223,16.12797 -5.63869,4.63323 -16.99357,8.14975 -30.38572,9.41041 -5.47342,0.51517 -15.22616,0.56594 -20.46837,0.10595 z" />
    <path
       inkscape:connector-curvature="0"
       style="fill:none;stroke:#000000;stroke-width:0.27954435;marker-end:url(#marker5381-6-6)"
       id="path4499-2"
       d="m -255.72036,250.93289 v 47.14102" />
    <path
       d="m -266.04897,298.53767 c -14.06491,-22.5854 2.31203,-47.50288 2.31203,-47.50288"
       id="path4503-4"
       style="fill:none;stroke:#000000;stroke-width:0.32889146px;marker-end:url(#marker5553-0-3)"
       inkscape:connector-curvature="0" />
    <text
       transform="scale(1.0322474,0.96876002)"
       x="87.408371"
       y="224.43034"
       font-size="5.1386px"
       style="font-size:7.41496277px;line-height:1.25;font-family:'8514fix';font-variant-ligatures:normal;font-variant-caps:normal;font-variant-numeric:normal;font-feature-settings:normal;letter-spacing:0px;word-spacing:0px;fill:#000000;stroke:#000000;stroke-width:0.24002609;stroke-opacity:0.66666667"
       xml:space="preserve"
       id="text4529-3"><tspan
         x="87.408371"
         y="224.43034"
         font-size="5.1386px"
         style="font-size:9.80818558px;line-height:1;font-family:'8514fix';font-variant-ligatures:normal;font-variant-caps:normal;font-variant-numeric:normal;font-feature-settings:normal;stroke:#000000;stroke-width:0.24002609;stroke-opacity:0.66666667"
         id="tspan4527-4" /></text>
    <text
       transform="scale(1.0322474,0.96876002)"
       x="87.408371"
       y="224.43034"
       font-size="5.1386px"
       style="font-size:7.41496277px;line-height:1.25;font-family:'8514fix';font-variant-ligatures:normal;font-variant-caps:normal;font-variant-numeric:normal;font-feature-settings:normal;letter-spacing:0px;word-spacing:0px;fill:#000000;stroke:#000000;stroke-width:0.24002609;stroke-opacity:0.66666667"
       xml:space="preserve"
       id="text8639"><tspan
         x="87.408371"
         y="224.43034"
         font-size="5.1386px"
         style="font-size:9.80818558px;line-height:1;font-family:'8514fix';font-variant-ligatures:normal;font-variant-caps:normal;font-variant-numeric:normal;font-feature-settings:normal;stroke:#000000;stroke-width:0.24002609;stroke-opacity:0.66666667"
         id="tspan8641" /></text>
    <text
       id="text4730"
       y="134.90714"
       x="118.88861"
       style="font-style:normal;font-weight:normal;font-size:4.23333359px;line-height:1.25;font-family:sans-serif;letter-spacing:0px;word-spacing:0px;fill:#000000;fill-opacity:1;stroke:none;stroke-width:0.26458335"
       xml:space="preserve"><tspan
         style="stroke-width:0.26458335"
         y="138.76933"
         x="118.88861"
         id="tspan4728"
         sodipodi:role="line" /></text>
    <text
       xml:space="preserve"
       style="font-style:normal;font-weight:normal;font-size:4.23333311px;line-height:1.25;font-family:sans-serif;letter-spacing:0px;word-spacing:0px;fill:#000000;fill-opacity:1;stroke:none;stroke-width:0.26458332"
       x="-262.46011"
       y="304.39816"
       id="text4487-8-5"><tspan
         sodipodi:role="line"
         id="tspan4485-5-1"
         x="-262.46011"
         y="304.39816"
         style="font-size:4.23333311px;fill:#000000;stroke-width:0.26458332">Disable</tspan></text>
    <text
       xml:space="preserve"
       style="font-style:normal;font-weight:normal;font-size:4.23333311px;line-height:1.25;font-family:sans-serif;letter-spacing:0px;word-spacing:0px;fill:#000000;fill-opacity:1;stroke:none;stroke-width:0.26458332"
       x="-295.25009"
       y="312.99301"
       id="text4487-4-1-0"><tspan
         sodipodi:role="line"
         id="tspan4485-8-3-3"
         x="-295.25009"
         y="312.99301"
         style="font-size:4.23333311px;line-height:1.39999998;fill:#000000;stroke-width:0.26458332">yOutDamPosMin = outDamPhyPosMin</tspan><tspan
         sodipodi:role="line"
         x="-295.25009"
         y="318.91968"
         style="font-size:4.23333311px;line-height:1.39999998;fill:#000000;stroke-width:0.26458332"
         id="tspan6753-2">yRetDamPosMax = retDamPhyPosMax</tspan></text>
    <text
       xml:space="preserve"
       style="font-style:normal;font-weight:normal;font-size:4.23333311px;line-height:1.25;font-family:sans-serif;letter-spacing:0px;word-spacing:0px;fill:#000000;fill-opacity:1;stroke:none;stroke-width:0.26458332"
       x="-278.57535"
       y="228.97801"
       id="text4487-8-5-3"><tspan
         sodipodi:role="line"
         x="-278.57535"
         y="228.97801"
         style="font-size:4.23333311px;fill:#000000;stroke-width:0.26458332"
         id="tspan8823">Enable limit modulation</tspan></text>
    <text
       xml:space="preserve"
       style="font-style:normal;font-weight:normal;font-size:4.23333311px;line-height:1.25;font-family:sans-serif;letter-spacing:0px;word-spacing:0px;fill:#000000;fill-opacity:1;stroke:none;stroke-width:0.26458332"
       x="-271.40454"
       y="236.83781"
       id="text4487-4-1-0-3"><tspan
         sodipodi:role="line"
         id="tspan4485-8-3-3-4"
         x="-271.40454"
         y="236.83781"
         style="font-size:4.23333311px;line-height:1.39999998;fill:#000000;stroke-width:0.26458332">yOutDamPosMin</tspan><tspan
         sodipodi:role="line"
         x="-271.40454"
         y="242.76448"
         style="font-size:4.23333311px;line-height:1.39999998;fill:#000000;stroke-width:0.26458332"
         id="tspan6753-2-7">yRetDamPosMin </tspan></text>
    <path
       style="fill:none;stroke:#000000;stroke-width:0.09999999;stroke-linecap:butt;stroke-linejoin:miter;stroke-miterlimit:4;stroke-dasharray:none;stroke-opacity:1;marker-start:url(#Arrow2Lstart);marker-end:url(#Arrow1Lend)"
       d="m -110.11908,122.5175 c 0,55.37825 0,55.37825 0,55.37825 82.78702,0 82.78702,0 82.78702,0"
       id="path8827"
       inkscape:connector-curvature="0" />
    <text
       xml:space="preserve"
       style="font-style:normal;font-weight:normal;font-size:4.23333311px;line-height:1.25;font-family:sans-serif;letter-spacing:0px;word-spacing:0px;fill:#333333;fill-opacity:1;stroke:none;stroke-width:0.26458332"
       x="-155.20483"
       y="124.60594"
       id="text4487-7"><tspan
         sodipodi:role="line"
         id="tspan4485-1"
         x="-155.20483"
         y="124.60594"
         style="font-size:4.23333311px;fill:#333333;stroke-width:0.26458332">retDamPhyPosMax,</tspan><tspan
         sodipodi:role="line"
         x="-155.20483"
         y="129.89761"
         style="font-size:4.23333311px;fill:#333333;stroke-width:0.26458332"
         id="tspan9169">outDamPhyPosMax</tspan></text>
    <text
       xml:space="preserve"
       style="font-style:normal;font-weight:normal;font-size:4.23333311px;line-height:1.25;font-family:sans-serif;letter-spacing:0px;word-spacing:0px;fill:#333333;fill-opacity:1;stroke:none;stroke-width:0.26458332"
       x="-153.83966"
       y="172.30457"
       id="text4487-7-0"><tspan
         sodipodi:role="line"
         id="tspan4485-1-9"
         x="-153.83966"
         y="172.30457"
         style="font-size:4.23333311px;fill:#333333;stroke-width:0.26458332">retDamPhyPosMin,</tspan><tspan
         sodipodi:role="line"
         x="-153.83966"
         y="177.59624"
         style="font-size:4.23333311px;fill:#333333;stroke-width:0.26458332"
         id="tspan9169-3">outDamPhyPosMin</tspan></text>
    <path
       style="fill:none;stroke:#000000;stroke-width:0.26458332px;stroke-linecap:round;stroke-linejoin:miter;stroke-opacity:1"
       d="m -110.15109,177.73039 c -1.43851,0 -1.43851,0 -1.43851,0"
       id="path9192"
       inkscape:connector-curvature="0" />
    <path
       style="fill:none;stroke:#000000;stroke-width:0.26458332px;stroke-linecap:round;stroke-linejoin:miter;stroke-opacity:1"
       d="m -110.18642,130.22315 c -1.44995,0 -1.44995,0 -1.44995,0"
       id="path9194"
       inkscape:connector-curvature="0" />
    <path
       style="fill:none;stroke:#000000;stroke-width:0.26458332;stroke-linecap:butt;stroke-linejoin:miter;stroke-miterlimit:4;stroke-dasharray:0.79374995, 0.26458332;stroke-dashoffset:0;stroke-opacity:1"
       d="m -110.18642,130.22315 c 33.51317,0 33.51317,0 33.51317,0"
       id="path9198"
       inkscape:connector-curvature="0" />
    <path
       style="fill:none;stroke:#000000;stroke-width:0.31172323;stroke-linecap:butt;stroke-linejoin:miter;stroke-miterlimit:4;stroke-dasharray:none;stroke-opacity:1"
       d="m -76.67324,130.22315 c 45.20227,0 45.20227,0 45.20227,0"
       id="path9200"
       inkscape:connector-curvature="0" />
    <path
       style="fill:none;stroke:#000000;stroke-width:0.26458332px;stroke-linecap:butt;stroke-linejoin:miter;stroke-opacity:1"
       d="m -110.14925,177.89575 c 33.476,-47.6726 33.476,-47.6726 33.476,-47.6726"
       id="path9238"
       inkscape:connector-curvature="0" />
    <path
       style="fill:none;stroke:#000000;stroke-width:0.30691865;stroke-linecap:butt;stroke-linejoin:miter;stroke-miterlimit:4;stroke-dasharray:0.92075593, 0.30691865;stroke-dashoffset:0;stroke-opacity:1"
       d="m -76.64278,130.23695 32.49277,47.43842 11.22617,-0.0934"
       id="path9242"
       inkscape:connector-curvature="0"
       sodipodi:nodetypes="ccc" />
    <path
       style="fill:none;stroke:#000000;stroke-width:0.1;stroke-linecap:butt;stroke-linejoin:miter;stroke-miterlimit:4;stroke-dasharray:0.1, 0.2;stroke-dashoffset:0;stroke-opacity:1"
       d="m -76.67326,130.22315 c 0,48.59628 0,48.59628 0,48.59628"
       id="path9246"
       inkscape:connector-curvature="0" />
    <path
       style="fill:none;stroke:#000000;stroke-width:0.26499999;stroke-linecap:round;stroke-linejoin:miter;stroke-miterlimit:4;stroke-dasharray:none;stroke-opacity:1"
       d="m -110.15109,177.73039 c 0,1.55676 0,1.62692 0,1.62692"
       id="path9263"
       inkscape:connector-curvature="0" />
    <text
       xml:space="preserve"
       style="font-style:normal;font-weight:normal;font-size:4.23333311px;line-height:1.25;font-family:sans-serif;letter-spacing:0px;word-spacing:0px;fill:#000000;fill-opacity:1;stroke:none;stroke-width:0.26458332"
       x="-121.02106"
       y="184.21915"
       id="text4487-8-2"><tspan
         sodipodi:role="line"
         id="tspan4485-5-9"
         x="-121.02106"
         y="184.21915"
         style="font-size:4.23333311px;fill:#000000;stroke-width:0.26458332">conSigMin</tspan></text>
    <text
       xml:space="preserve"
       style="font-style:normal;font-weight:normal;font-size:4.23333311px;line-height:1.25;font-family:sans-serif;letter-spacing:0px;word-spacing:0px;fill:#000000;fill-opacity:1;stroke:none;stroke-width:0.26458332"
       x="-97.009537"
       y="189.27051"
       id="text4487-8-0"><tspan
         sodipodi:role="line"
         id="tspan4485-5-19"
         x="-97.009537"
         y="189.27051"
         style="font-size:4.23333311px;fill:#000000;stroke-width:0.26458332">conSigFraOutDam</tspan><tspan
         sodipodi:role="line"
         x="-97.009537"
         y="194.56218"
         style="font-size:4.23333311px;fill:#000000;stroke-width:0.26458332"
         id="tspan9411" /></text>
    <text
       xml:space="preserve"
       style="font-style:normal;font-weight:normal;font-size:4.23333311px;line-height:1.25;font-family:sans-serif;letter-spacing:0px;word-spacing:0px;fill:#000000;fill-opacity:1;stroke:none;stroke-width:0.26458332"
       x="-57.598068"
       y="183.97725"
       id="text4487-8-00"><tspan
         sodipodi:role="line"
         id="tspan4485-5-97"
         x="-57.598068"
         y="183.97725"
         style="font-size:4.23333311px;fill:#000000;stroke-width:0.26458332">conSigMax</tspan></text>
    <text
       xml:space="preserve"
       style="font-style:normal;font-weight:normal;font-size:4.23333311px;line-height:1.25;font-family:sans-serif;letter-spacing:0px;word-spacing:0px;fill:#000000;fill-opacity:1;stroke:none;stroke-width:0.26458332"
       x="76.137405"
       y="125.05675"
       id="text4487-4-1-8"
       transform="rotate(55.6)"><tspan
         sodipodi:role="line"
         id="tspan4485-8-3-00"
         x="76.137405"
         y="128.91895"
         style="font-size:4.23333311px;line-height:1.39999998;fill:#000000;stroke-width:0.26458332" /><tspan
         sodipodi:role="line"
         x="76.137405"
         y="134.52811"
         style="font-size:4.23333311px;line-height:1.39999998;fill:#000000;stroke-width:0.26458332"
         id="tspan6753-0">yRetDamPosMax</tspan></text>
    <text
       xml:space="preserve"
       style="font-style:normal;font-weight:normal;font-size:4.23333311px;line-height:1.25;font-family:sans-serif;letter-spacing:0px;word-spacing:0px;fill:#000000;fill-opacity:1;stroke:none;stroke-width:0.26458332"
       x="-196.23468"
       y="12.385046"
       id="text9436"
       transform="rotate(-54)"><tspan
         sodipodi:role="line"
         id="tspan9434"
         x="-196.23468"
         y="12.385046"
         style="stroke-width:0.26458332">yOutDamPosMin</tspan></text>
    <path
       style="fill:none;stroke:#000000;stroke-width:0.26499999;stroke-linecap:round;stroke-linejoin:miter;stroke-miterlimit:4;stroke-dasharray:none;stroke-opacity:1"
       d="m -44.15001,177.67537 c 0,1.55676 0,1.62692 0,1.62692"
       id="path9263-7"
       inkscape:connector-curvature="0" />
    <path
       style="fill:none;stroke:#000000;stroke-width:0.26499999;stroke-linecap:round;stroke-linejoin:miter;stroke-miterlimit:4;stroke-dasharray:none;stroke-opacity:1"
       d="m -76.67326,177.68034 c 0,1.55676 0,1.62692 0,1.62692"
       id="path9263-9"
       inkscape:connector-curvature="0" />
    <path
       style="fill:#4d4d4d;stroke:#000000;stroke-width:0.26458332px;stroke-linecap:butt;stroke-linejoin:miter;stroke-opacity:1;marker-start:url(#marker9822);marker-end:url(#marker10000)"
       d="m -79.37284,178.95637 c 5.09323,0 5.22552,0 5.22552,0"
       id="path9459"
       inkscape:connector-curvature="0" />
    <path
       style="fill:#4d4d4d;stroke:#000000;stroke-width:0.26458332px;stroke-linecap:butt;stroke-linejoin:miter;stroke-opacity:1;marker-start:url(#marker9484);marker-end:url(#marker9650)"
       d="m -46.78907,178.93623 c 5.09323,0 5.22552,0 5.22552,0"
       id="path9459-0"
       inkscape:connector-curvature="0" />
    <text
       xml:space="preserve"
       style="font-style:normal;font-weight:normal;font-size:4.23333311px;line-height:1.25;font-family:sans-serif;letter-spacing:0px;word-spacing:0px;fill:#333333;fill-opacity:1;stroke:none;stroke-width:0.26458332"
       x="-28.541519"
       y="183.13266"
       id="text4487-8-00-8"><tspan
         sodipodi:role="line"
         id="tspan4485-5-97-6"
         x="-28.541519"
         y="183.13266"
         style="font-size:4.23333311px;fill:#333333;stroke-width:0.26458332">Outdoor Airflow</tspan><tspan
         sodipodi:role="line"
         x="-28.541519"
         y="188.42433"
         style="font-size:4.23333311px;fill:#333333;stroke-width:0.26458332"
         id="tspan10694">Control Signal</tspan></text>
    <text
       xml:space="preserve"
       style="font-style:normal;font-weight:normal;font-size:10.58333302px;line-height:1.25;font-family:sans-serif;letter-spacing:0px;word-spacing:0px;fill:#000000;fill-opacity:1;stroke:none;stroke-width:0.26458332"
       x="174.84471"
       y="223.81454"
       id="text6857"><tspan
         sodipodi:role="line"
         id="tspan6855"
         x="174.84471"
         y="233.47005"
         style="stroke-width:0.26458332" /></text>
    <text
       xml:space="preserve"
       style="font-style:normal;font-weight:normal;font-size:4.23333311px;line-height:1.25;font-family:sans-serif;letter-spacing:0px;word-spacing:0px;fill:#000000;fill-opacity:1;stroke:none;stroke-width:0.26458332"
       x="-323.8432"
       y="263.57214"
       id="text4487-4-1-0-3-4"><tspan
         sodipodi:role="line"
         x="-323.8432"
         y="263.57214"
         style="font-size:4.23333311px;line-height:1.39999998;fill:#000000;stroke-width:0.26458332"
         id="tspan6753-2-7-8">uSupFan = true</tspan><tspan
         sodipodi:role="line"
         x="-323.8432"
         y="269.49881"
         style="font-size:4.23333311px;line-height:1.39999998;fill:#000000;stroke-width:0.26458332"
         id="tspan6882">AND</tspan><tspan
         sodipodi:role="line"
         x="-323.8432"
         y="275.42548"
         style="font-size:4.23333311px;line-height:1.39999998;fill:#000000;stroke-width:0.26458332"
         id="tspan6884">uAHUMode = Occupied</tspan><tspan
         sodipodi:role="line"
         x="-323.8432"
         y="281.35214"
         style="font-size:4.23333311px;line-height:1.39999998;fill:#000000;stroke-width:0.26458332"
         id="tspan6886">AND</tspan><tspan
         sodipodi:role="line"
         x="-323.8432"
         y="287.27881"
         style="font-size:4.23333311px;line-height:1.39999998;fill:#000000;stroke-width:0.26458332"
         id="tspan6888">uFreProSta &lt;= Stage 1</tspan></text>
    <text
       xml:space="preserve"
       style="font-style:normal;font-weight:normal;font-size:4.23333311px;line-height:1.25;font-family:sans-serif;letter-spacing:0px;word-spacing:0px;fill:#000000;fill-opacity:1;stroke:none;stroke-width:0.26458332"
       x="-247.54811"
       y="263.09714"
       id="text4487-4-1-0-3-4-1"><tspan
         sodipodi:role="line"
         x="-247.54811"
         y="263.09714"
         style="font-size:4.23333311px;line-height:1.39999998;fill:#000000;stroke-width:0.26458332"
         id="tspan6888-9">uSupFan = false</tspan><tspan
         sodipodi:role="line"
         x="-247.54811"
         y="269.0238"
         style="font-size:4.23333311px;line-height:1.39999998;fill:#000000;stroke-width:0.26458332"
         id="tspan6934">OR</tspan><tspan
         sodipodi:role="line"
         x="-247.54811"
         y="274.95047"
         style="font-size:4.23333311px;line-height:1.39999998;fill:#000000;stroke-width:0.26458332"
         id="tspan6936">uAHUMode != Occupied</tspan><tspan
         sodipodi:role="line"
         x="-247.54811"
         y="280.87714"
         style="font-size:4.23333311px;line-height:1.39999998;fill:#000000;stroke-width:0.26458332"
         id="tspan6938">OR</tspan><tspan
         sodipodi:role="line"
         x="-247.54811"
         y="286.8038"
         style="font-size:4.23333311px;line-height:1.39999998;fill:#000000;stroke-width:0.26458332"
         id="tspan6940">uFreProSta &gt; Stage 1</tspan></text>
    <path
       inkscape:connector-curvature="0"
       style="fill:none;fill-opacity:1;stroke:#000000;stroke-width:0.11130211;stroke-opacity:0.66666667"
       id="path4497-0-4"
       d="m -263.7356,251.0357 c -14.09484,-1.23525 -25.57235,-4.79924 -31.55614,-9.79879 -2.84067,-2.37342 -3.69077,-3.93893 -3.69077,-6.79702 0,-2.82906 0.82763,-4.38249 3.58133,-6.72203 5.6923,-4.83575 16.07915,-8.19846 29.90774,-9.68267 6.10194,-0.65489 15.9056,-0.70005 21.95751,-0.10111 11.95774,1.18327 21.29637,3.69872 27.68085,7.45637 8.29644,4.88227 9.39626,10.85009 2.97223,16.12797 -5.63869,4.63323 -16.99357,8.14976 -30.38572,9.41041 -5.47342,0.51517 -15.22616,0.56594 -20.46837,0.10596 z" />
    <path
       style="fill:none;stroke:#000000;stroke-width:0.15000001;stroke-linecap:butt;stroke-linejoin:miter;stroke-miterlimit:4;stroke-dasharray:none;stroke-opacity:1;marker-start:url(#marker9614)"
       d="m -310.69257,145.76247 c -33.20521,0 -33.20521,0 -33.20521,0"
       id="path7586"
       inkscape:connector-curvature="0" />
    <path
       style="fill:none;stroke:#000000;stroke-width:0.15000001;stroke-linecap:butt;stroke-linejoin:miter;stroke-miterlimit:4;stroke-dasharray:none;stroke-opacity:1;marker-end:url(#marker9424)"
       d="m -295.39386,169.44455 c -14.01516,0 -14.01516,0 -14.01516,0 0,-22.19317 0,-22.19317 0,-22.19317"
       id="path7590"
       inkscape:connector-curvature="0" />
    <path
       style="fill:none;stroke:#000000;stroke-width:0.15000001;stroke-linecap:butt;stroke-linejoin:miter;stroke-miterlimit:4;stroke-dasharray:none;stroke-opacity:1;marker-mid:url(#Arrow1Lstart)"
       d="m -295.54057,145.7356 c -12.39159,0 -12.39159,0 -12.39159,0"
       id="path7586-4"
       inkscape:connector-curvature="0" />
    <path
       style="fill:none;stroke:#000000;stroke-width:0.15000001;stroke-linecap:butt;stroke-linejoin:miter;stroke-miterlimit:4;stroke-dasharray:none;stroke-opacity:1"
       d="m -269.70406,145.99399 c -9.24967,0 -9.24967,0 -9.24967,0"
       id="path7586-4-2"
       inkscape:connector-curvature="0" />
    <path
       style="fill:none;stroke:#000000;stroke-width:0.15000001;stroke-linecap:butt;stroke-linejoin:round;stroke-miterlimit:4;stroke-dasharray:0.15, 0.3;stroke-dashoffset:0;stroke-opacity:1"
       d="m -278.86478,169.54263 c 64.70363,0 64.70363,0 64.70363,0"
       id="path7654"
       inkscape:connector-curvature="0" />
    <path
       style="fill:none;stroke:#000000;stroke-width:0.149;stroke-linecap:butt;stroke-linejoin:round;stroke-miterlimit:4;stroke-dasharray:0.149, 0.298;stroke-dashoffset:0;stroke-opacity:1"
       d="m -214.05351,147.49831 c 0,22.15107 0,22.15107 0,22.15107"
       id="path7658"
       inkscape:connector-curvature="0" />
    <path
       style="fill:none;stroke:#000000;stroke-width:0.14938122;stroke-linecap:butt;stroke-linejoin:round;stroke-miterlimit:4;stroke-dasharray:0.14938121, 0.29876243;stroke-dashoffset:0;stroke-opacity:1;marker-mid:url(#marker11262);marker-end:url(#marker11262)"
       d="m -214.05927,121.93969 c 0,22.24702 0,22.24702 0,22.24702"
       id="path7658-4"
       inkscape:connector-curvature="0" />
    <path
       style="fill:none;stroke:#000000;stroke-width:0.15000001;stroke-linecap:butt;stroke-linejoin:round;stroke-miterlimit:4;stroke-dasharray:0.15, 0.3;stroke-dashoffset:0;stroke-opacity:1;marker-start:url(#marker11858)"
       d="m -196.71798,145.79555 c -15.98486,0 -15.98486,0 -15.98486,0"
       id="path7586-4-2-3-1"
       inkscape:connector-curvature="0" />
    <flowRoot
       xml:space="preserve"
       id="flowRoot12751"
       style="font-style:normal;font-weight:normal;font-size:40px;line-height:1.25;font-family:sans-serif;letter-spacing:0px;word-spacing:0px;fill:#000000;fill-opacity:1;stroke:none"
       transform="matrix(0.26458333,0,0,0.26458333,31.810547,125.91119)"><flowRegion
         id="flowRegion12753"><rect
           id="rect12755"
           width="690.5"
           height="299"
           x="-119"
           y="-427.97153" /></flowRegion><flowPara
         id="flowPara12757" /></flowRoot>  </g>
</svg>
