last-generated=2017-09-08
statistics-initialization=
{
  "numerical Jacobians": "0", 
  "nonlinear": "1, 3, 1, 1, 17"
}
statistics-simulation=
{
  "numerical Jacobians": "0", 
  "nonlinear": "1, 0, 1, 3, 1", 
  "number of continuous time states": "37", 
  "linear": "0, 2, 2"
}
winTur.vWin=[9.999999974752427e-07, 1.596567511558533e+00, 1.895051121711731e+00, 3.092883586883545e+00, 3.109243810176849e-01, 9.999999974752427e-07, 2.726400084793568e-02, 1.5e+00, 9.939464330673218e-01, 2.037714868783951e-01, 3.268851041793823e+00, 1.391083598136902e+00, 2.099999904632568e+00, 2.099999904632568e+00, 2.030853748321539e+00, 1.729037880897522e+00, 9.999999974752427e-07, 6.67519986629494e-01, 3.402022123336792e+00, 5.590994834899902e+00, 5.68682336807251e+00, 3.536049604415894e+00, 1.235832367092371e-02, 1.976735949516296e+00, 3.420000076293945e+00, 9.999999974752427e-07, 1.102998852729797e+00, 9.461759924888611e-01, 9.999999974752427e-07, 1.798617601394653e+00, 3.991854429244995e+00, 8.535819053649902e+00, 1.048734664916992e+01, 9.666060447692871e+00, 3.757381916046123e+00, 4.036571502685547e+00, 2.356527328491211e+00, 1.047459840774536e-01, 2.066086053848267e+00, 1.128999471664429e+00, 1.245499134063721e+00, 1.979716897010781e+00, 1.426740527153015e+00, 4.160890102386475e+00, 9.999999974752427e-07, 9.710806012153625e-01, 1.140192031860352e+00, 9.999999974752427e-07, 3.306962490081787e+00, 3.779999971389771e+00, 2.099999904632568e+00, 3.44635397195816e-01, 2.487114429473877e+00, 9.999999974752427e-07, 9.999999974752427e-07, 4.670769274234772e-01, 1.568213701248187e+00, 3.073129177093498e+00, 2.069003582000732e+00, 1.004611793905497e-02, 2.152941226959229e-01, 9.954575896263123e-01, 4.19812536239624e+00, 3.54094934463501e+00, 3.599999904632568e+00, 1.98800003528595e+00, 3.606459379196167e+00, 8.766912221908569e-01, 1.218539237976044e+00, 9.999999974752427e-07, 1.850905299186707e+00, 3.191929578781128e+00, 2.602028846740723e+00, 3.599999904632568e+00, 3.528584241867065e+00, 9.999999974752427e-07, 2.236452579498291e+00, 2.909302949905396e+00, 3.067941665649414e+00, 3.233940303325653e-01, 2.016434192657471e+00, 1.48234975337982e+00, 2.008835792541492e+00, 8.642631769180298e-01, 2.078947067260742e+00, 5.176911354064941e+00, 4.164128303527832e+00, 1.5e+00, 1.5e+00, 2.120252132415771e+00, 5.815384536981583e-02, 2.041052103042603e+00, 4.06989049911499e+00, 5.144943237304688e+00, 3.057475566864014e+00, 3.528000116348267e+00, 2.870009660720825e+00, 4.118892669677734e+00, 3.279999971389771e+00, 4.050852954387665e-01, 9.999999974752427e-07]
time=[0e+00, 6.048e+05]
winTur.P=[0e+00, 0e+00, 1.075216064453125e+03, 2.9545349609375e+04, 0e+00, 0e+00, 0e+00, 0e+00, 0e+00, 0e+00, 3.7791046875e+04, 0e+00, 4.97673291015625e+03, 4.97673291015625e+03, 3.660428710937609e+03, 0e+00, 0e+00, 0e+00, 4.403133203125e+04, 1.46604796875e+05, 1.51095234375e+05, 5.031174609375e+04, 0e+00, 2.630212646484375e+03, 4.48737578125e+04, 0e+00, 0e+00, 0e+00, 0e+00, 0e+00, 7.1670390625e+04, 2e+05, 2e+05, 2e+05, 6.068320312499906e+04, 7.37657890625e+04, 9.860125e+03, 0e+00, 4.3311279296875e+03, 0e+00, 0e+00, 2.68695971679681e+03, 0e+00, 7.95912578125e+04, 0e+00, 0e+00, 0e+00, 0e+00, 3.957691796875e+04, 6.17430625e+04, 4.97673291015625e+03, 0e+00, 1.234605078125e+04, 0e+00, 0e+00, 0e+00, 9.169382275651078e-11, 2.861968164062465e+04, 4.38666845703125e+03, 0e+00, 0e+00, 0e+00, 8.13360625e+04, 5.054134375e+04, 5.330841015625e+04, 2.844640380859375e+03, 5.361109375e+04, 0e+00, 0e+00, 0e+00, 2.348309478759766e+02, 3.41865703125e+04, 1.45336240234375e+04, 5.330841015625e+04, 4.99619296875e+04, 0e+00, 7.5743173828125e+03, 2.0942912109375e+04, 2.837659375e+04, 0e+00, 3.3859306640625e+03, 0e+00, 3.241280517577969e+03, 0e+00, 4.57595751953125e+03, 1.272011796875e+05, 7.9742984375e+04, 0e+00, 0e+00, 5.362263671875e+03, 0e+00, 3.85456982421875e+03, 7.5327078125e+04, 1.257031796875e+05, 2.78861640625e+04, 4.993455078125e+04, 1.963505078125e+04, 7.7623296875e+04, 3.83134765625e+04, 0e+00, 0e+00]
pv.P=[2.100998722016811e-02, 2.103638090193272e-02, 2.109234593808651e-02, 2.115117572247982e-02, 1.207347183227539e+02, 5.9075375e+04, 1.292099296875e+05, 1.24213625e+05, 1.05285609375e+05, 6.024068359375e+04, 2.123694308102131e-02, 2.118301019072533e-02, 2.112497761845589e-02, 2.106647938489914e-02, 2.101710624992847e-02, 2.102308720350266e-02, 2.107555232942104e-02, 2.113430015742779e-02, 2.28844340890646e-02, 2.157878515625e+04, 1.08651421875e+05, 1.35284546875e+05, 1.161695546875e+05, 7.195034375e+04, 1.968509887695312e+03, 2.119938284158707e-02, 2.114216238260269e-02, 2.108334377408028e-02, 2.102908119559288e-02, 2.101342007517815e-02, 2.105916291475296e-02, 2.111732959747314e-02, 2.11756806820631e-02, 4.46096337890625e+03, 7.514991406250031e+04, 1.16560890625e+05, 1.168965078125e+05, 7.77755390625e+04, 2.115083984375e+04, 2.121535316109657e-02, 2.11592186242342e-02, 2.11004801094532e-02, 2.104366570711136e-02, 2.100992389023304e-02, 2.104354836046696e-02, 2.110036090016365e-02, 2.115912362933159e-02, 7.523004760742188e+02, 3.996225390625e+04, 6.03939921875e+04, 1.0753153125e+05, 9.72341796875e+04, 3.684495703125e+04, 2.123082801699638e-02, 2.117607183754444e-02, 2.111772820353508e-02, 2.105960622429848e-02, 2.101399749517441e-02, 2.102939411997795e-02, 2.10835225880146e-02, 2.114235423505306e-02, 2.398835681378841e-02, 2.7130876953125e+04, 8.1818734375e+04, 1.32969421875e+05, 1.3160525e+05, 7.21634453125e+04, 2.133022621273994e-02, 2.119265124201775e-02, 2.113497443497181e-02, 2.10762694478035e-02, 2.1024065092206e-02, 2.101801335811615e-02, 2.106699533760548e-02, 2.112545445561409e-02, 2.163027413189411e-02, 9.6062548828125e+03, 9.11464375e+04, 7.24068671875e+04, 1.20986875e+05, 8.3585140625e+04, 1.29491494140619e+04, 2.12088730186224e-02, 2.115213498473167e-02, 2.109331265091896e-02, 2.103761769831181e-02, 2.101161517202854e-02, 2.105108089745045e-02, 2.110852114856243e-02, 2.116717211902142e-02, 2.729178033769131e-02, 1.54644501953125e+04, 5.225646875e+04, 3.78922109375e+04, 7.15370859375e+04, 4.388613671875e+04, 2.122465148568153e-02, 2.116913348436356e-02, 2.111054211854935e-02, 2.10530050098896e-02, 2.101237140595913e-02]
gri.P.real=[-4.8714859375e+04, 6.51568515625e+04, -2.9371166015625e+04, -1.3712284375e+05, -1.86325421875e+05, -3.152005625e+05, -9.90985125e+05, -9.86602125e+05, -9.69746e+05, -5.691348125e+05, -5.488916875e+05, -5.1465675e+05, -3.3906825e+05, -3.3894678125e+05, -3.377068125000001e+05, -3.3460771875e+05, -3.343145e+05, -3.3424934375e+05, -5.54060125e+05, -1.0257805625e+06, -1.10838875e+06, -1.04179425e+06, -6.19440375e+05, -5.821778125e+05, -5.571024375e+05, -5.1484175e+05, -3.3465503125e+05, -3.3470609375e+05, -3.3468646875e+05, -3.3465646875e+05, -3.9912296875e+05, -5.1470765625e+05, -5.146913125e+05, -1.058604e+06, -9.968281249999994e+05, -1.0460225e+06, -6.28898e+05, -5.8477925e+05, -5.37744625e+05, -5.146488125e+05, -3.3455734375e+05, -3.368908749999999e+05, -3.3474290625e+05, -4.063143125e+05, -3.345755e+05, -3.3451346875e+05, -3.342668125e+05, -5.1499625e+05, -9.4609625e+05, -9.84502e+05, -6.1590675e+05, -6.022578125e+05, -5.59095375e+05, -5.148808125e+05, -5.1474434375e+05, -3.3469253125e+05, -3.346849062500001e+05, -3.603780624999997e+05, -3.3852125e+05, -3.3429109375e+05, -3.34273625e+05, -5.1430553125e+05, -9.721059375e+05, -9.936555625e+05, -6.822255e+05, -6.356306875e+05, -6.281665e+05, -5.1484425e+05, -5.1471353125e+05, -3.3458578125e+05, -3.3476865625e+05, -3.6529903125e+05, -3.4755265625e+05, -3.8242015625e+05, -3.794015625e+05, -5.1435990625e+05, -8.897753125e+05, -9.752231875e+05, -9.65067875e+05, -6.232655e+05, -5.927155e+05, -5.261333749999994e+05, -5.174489687499999e+05, -3.345215e+05, -3.385211875e+05, -4.4932146875e+05, -4.0654715625e+05, -3.3475734375e+05, -3.3447234375e+05, -3.394181875e+05, -8.74661875e+05, -8.921165625e+05, -9.89524125e+05, -6.6186675e+05, -6.04169e+05, -5.992563125e+05, -5.3234975e+05, -5.84438375e+05, -3.6899759375e+05, -3.3449328125e+05, -3.34405e+05]
gri.P.cosPhi=[-8.000001311302185e-01, 8.063027858734131e-01, -5.235335230827332e-01, -9.442741274833679e-01, -9.68555212020874e-01, -9.88591194152832e-01, -9.98803436756134e-01, -9.987885355949402e-01, -9.987392425537109e-01, -9.963606595993042e-01, -9.960935115814209e-01, -9.955903291702271e-01, -9.89948034286499e-01, -9.899781942367554e-01, -9.899225831031799e-01, -9.896765947341919e-01, -9.897509813308716e-01, -9.897674918174744e-01, -9.962180852890015e-01, -9.988927841186523e-01, -9.990454912185669e-01, -9.989150762557983e-01, -9.969280362129211e-01, -9.965064525604248e-01, -9.961996674537659e-01, -9.955683946609497e-01, -9.896645545959473e-01, -9.89651620388031e-01, -9.896565675735474e-01, -9.896641969680786e-01, -9.92708146572113e-01, -9.955843091011047e-01, -9.955862760543823e-01, -9.989546537399292e-01, -9.988216757774353e-01, -9.989247918128967e-01, -9.970257878303528e-01, -9.965662956237793e-01, -9.959394335746765e-01, -9.955912828445435e-01, -9.896893501281738e-01, -9.898558259010315e-01, -9.896422624588013e-01, -9.929478168487549e-01, -9.896847605705261e-01, -9.897004961967468e-01, -9.89763081073761e-01, -9.956417083740234e-01, -9.98694896697998e-01, -9.987920522689819e-01, -9.969155788421631e-01, -9.9676513671875e-01, -9.96240496635437e-01, -9.955637454986572e-01, -9.955799579620361e-01, -9.89655077457428e-01, -9.896569848060608e-01, -9.910777807235718e-01, -9.899209141731262e-01, -9.897568821907043e-01, -9.897613525390625e-01, -9.956318736076355e-01, -9.987646341323853e-01, -9.988158941268921e-01, -9.974896311759949e-01, -9.971053004264832e-01, -9.970049262046814e-01, -9.955680966377258e-01, -9.955835938453674e-01, -9.89682137966156e-01, -9.897022247314453e-01, -9.913371205329895e-01, -9.904599785804749e-01, -9.921079277992249e-01, -9.91985023021698e-01, -9.956254363059998e-01, -9.985339045524597e-01, -9.987779259681702e-01, -9.987514019012451e-01, -9.970127940177917e-01, -9.966919422149658e-01, -9.958024024963379e-01, -9.956542253494263e-01, -9.896984696388245e-01, -9.89973247051239e-01, -9.941940307617188e-01, -9.929350018501282e-01, -9.896385669708252e-01, -9.897109270095825e-01, -9.899675250053406e-01, -9.98466432094574e-01, -9.985226392745972e-01, -9.987998008728027e-01, -9.973288774490356e-01, -9.967913031578064e-01, -9.967257380485535e-01, -9.958741068840027e-01, -9.965837597846985e-01, -9.915118217468262e-01, -9.897056221961975e-01, -9.897280335426331e-01]
