last-generated=2017-09-08
statistics-initialization=
{
  "numerical Jacobians": "0", 
  "nonlinear": "16, 16, 16, 16, 1, 1, 1, 1, 1, 1, 1, 2, 1, 1, 1, 1", 
  "linear": "0, 0, 0, 0"
}
statistics-simulation=
{
  "numerical Jacobians": "0", 
  "nonlinear": "1, 1, 1, 1, 0, 1, 1, 0, 2, 1, 0, 1, 0", 
  "number of continuous time states": "221", 
  "linear": "0, 0, 0, 13, 0, 0, 0, 0, 0, 13, 0, 0, 0, 13, 0, 0, 0, 13, 0, 0, 8, 0, 0, 0, 0, 0,   0, 0"
}
flo.wes.air.vol.T=[2.931499938964844e+02, 2.920592346191406e+02, 2.918777465820312e+02, 2.917649536132812e+02, 2.916811218261719e+02, 2.916156921386719e+02, 2.915917358398438e+02, 2.9150830078125e+02, 2.913721618652344e+02, 2.912595520019531e+02, 2.911419982910156e+02, 2.910862731933594e+02, 2.930840759277344e+02, 2.9319482421875e+02, 2.931539611816406e+02, 2.931517028808594e+02, 2.931524963378906e+02, 2.931776428222656e+02, 2.931740417480469e+02, 2.931576232910156e+02, 2.931042175292969e+02, 2.9315087890625e+02, 2.931727294921875e+02, 2.93158203125e+02, 2.93153564453125e+02, 2.931521911621094e+02, 2.931527404785156e+02, 2.931552734375e+02, 2.931559448242188e+02, 2.931529235839844e+02, 2.931565856933594e+02, 2.931546630859375e+02, 2.931554565429688e+02, 2.931587219238281e+02, 2.93179931640625e+02, 2.931587829589844e+02, 2.931467590332031e+02, 2.931229553222656e+02, 2.931328125e+02, 2.931408081054688e+02, 2.928745727539062e+02, 2.928831176757812e+02, 2.928290100097656e+02, 2.927866516113281e+02, 2.927843322753906e+02, 2.927151184082031e+02, 2.926048278808594e+02, 2.92515380859375e+02, 2.924245300292969e+02, 2.923419799804688e+02, 2.922667541503906e+02, 2.921886901855469e+02, 2.921040649414062e+02, 2.920277099609375e+02, 2.919516906738281e+02, 2.918891296386719e+02, 2.918243408203125e+02, 2.917687683105469e+02, 2.917178955078125e+02, 2.916785583496094e+02, 2.916246337890625e+02, 2.915700988769531e+02, 2.932463684082031e+02, 2.931802062988281e+02, 2.931642150878906e+02, 2.93154541015625e+02, 2.931524047851562e+02, 2.931749572753906e+02, 2.931805725097656e+02, 2.931624755859375e+02, 2.931549987792969e+02, 2.931548461914062e+02, 2.931554260253906e+02, 2.931549987792969e+02, 2.931550903320312e+02, 2.931544799804688e+02, 2.931423645019531e+02, 2.93153076171875e+02, 2.931670532226562e+02, 2.93150146484375e+02, 2.931501770019531e+02, 2.931490783691406e+02, 2.93151123046875e+02, 2.931517639160156e+02, 2.931498413085938e+02, 2.9314892578125e+02, 2.931475830078125e+02, 2.930752258300781e+02, 2.931359558105469e+02, 2.931414489746094e+02, 2.928460388183594e+02, 2.927715454101562e+02, 2.926932067871094e+02, 2.926159973144531e+02, 2.925429077148438e+02, 2.924961547851562e+02, 2.924761657714844e+02, 2.924490356445312e+02, 2.924397583007812e+02, 2.923892517089844e+02, 2.921391296386719e+02]
time=[0e+00, 1.728e+05]
flo.sou.air.vol.T=[2.931499938964844e+02, 2.923515319824219e+02, 2.921886596679688e+02, 2.920760498046875e+02, 2.919126281738281e+02, 2.917837524414062e+02, 2.916971435546875e+02, 2.915797119140625e+02, 2.914088439941406e+02, 2.912945251464844e+02, 2.9126171875e+02, 2.911278076171875e+02, 2.929952392578125e+02, 2.931425170898438e+02, 2.931209716796875e+02, 2.931440734863281e+02, 2.931968688964844e+02, 2.932665405273438e+02, 2.932499694824219e+02, 2.931755065917969e+02, 2.931546325683594e+02, 2.931822204589844e+02, 2.931798706054688e+02, 2.931589050292969e+02, 2.933219299316406e+02, 2.9347900390625e+02, 2.934401550292969e+02, 2.93452392578125e+02, 2.936760559082031e+02, 2.938569641113281e+02, 2.939707641601562e+02, 2.939130859375e+02, 2.937806396484375e+02, 2.936604309082031e+02, 2.936177062988281e+02, 2.936282958984375e+02, 2.935452270507812e+02, 2.934179992675781e+02, 2.933115844726562e+02, 2.931416625976562e+02, 2.932161560058594e+02, 2.931352844238281e+02, 2.931365661621094e+02, 2.933082885742188e+02, 2.932948913574219e+02, 2.932152404785156e+02, 2.928450012207031e+02, 2.927183837890625e+02, 2.926054077148438e+02, 2.925180358886719e+02, 2.924387512207031e+02, 2.923585510253906e+02, 2.923047790527344e+02, 2.921584777832031e+02, 2.920293273925781e+02, 2.919644470214844e+02, 2.918900146484375e+02, 2.9187255859375e+02, 2.919429321289062e+02, 2.918735046386719e+02, 2.915941772460938e+02, 2.91544677734375e+02, 2.932497863769531e+02, 2.931791076660156e+02, 2.931619567871094e+02, 2.931554565429688e+02, 2.931474914550781e+02, 2.931743774414062e+02, 2.93195556640625e+02, 2.931697692871094e+02, 2.931605529785156e+02, 2.931568298339844e+02, 2.931536560058594e+02, 2.931556091308594e+02, 2.931658630371094e+02, 2.93178466796875e+02, 2.932137145996094e+02, 2.931507263183594e+02, 2.931519775390625e+02, 2.931479187011719e+02, 2.931507568359375e+02, 2.931504821777344e+02, 2.931518859863281e+02, 2.931536254882812e+02, 2.931350402832031e+02, 2.93037109375e+02, 2.931686706542969e+02, 2.931913146972656e+02, 2.931282043457031e+02, 2.931327209472656e+02, 2.926566467285156e+02, 2.925558166503906e+02, 2.924645080566406e+02, 2.924004516601562e+02, 2.923804321289062e+02, 2.9246240234375e+02, 2.9250927734375e+02, 2.924798583984375e+02, 2.924651184082031e+02, 2.923786010742188e+02, 2.922985229492188e+02]
flo.cor.air.vol.T=[2.931499938964844e+02, 2.926644287109375e+02, 2.924718322753906e+02, 2.923608093261719e+02, 2.922649230957031e+02, 2.921724548339844e+02, 2.92105224609375e+02, 2.920289306640625e+02, 2.919176025390625e+02, 2.918122253417969e+02, 2.917320251464844e+02, 2.916521911621094e+02, 2.931994934082031e+02, 2.931480712890625e+02, 2.931528625488281e+02, 2.931513366699219e+02, 2.931505737304688e+02, 2.931807861328125e+02, 2.931305847167969e+02, 2.932562866210938e+02, 2.933197937011719e+02, 2.933663024902344e+02, 2.934057922363281e+02, 2.93435302734375e+02, 2.934767761230469e+02, 2.935149841308594e+02, 2.934127197265625e+02, 2.934230346679688e+02, 2.936818237304688e+02, 2.937278747558594e+02, 2.9376806640625e+02, 2.93781982421875e+02, 2.937930297851562e+02, 2.938042602539062e+02, 2.938167114257812e+02, 2.938215637207031e+02, 2.937575988769531e+02, 2.935329895019531e+02, 2.932581176757812e+02, 2.931473083496094e+02, 2.934913940429688e+02, 2.93517333984375e+02, 2.93451171875e+02, 2.934083251953125e+02, 2.933986206054688e+02, 2.933253173828125e+02, 2.931964416503906e+02, 2.930987243652344e+02, 2.930012512207031e+02, 2.929110717773438e+02, 2.92828857421875e+02, 2.927501831054688e+02, 2.926708374023438e+02, 2.925863952636719e+02, 2.924977722167969e+02, 2.9242822265625e+02, 2.923587951660156e+02, 2.922987976074219e+02, 2.922407531738281e+02, 2.921933898925781e+02, 2.921207275390625e+02, 2.920581970214844e+02, 2.934317016601562e+02, 2.931709899902344e+02, 2.931520385742188e+02, 2.931507873535156e+02, 2.931503295898438e+02, 2.93181396484375e+02, 2.931568603515625e+02, 2.933226623535156e+02, 2.933953552246094e+02, 2.934262084960938e+02, 2.934565734863281e+02, 2.934836120605469e+02, 2.935082092285156e+02, 2.935330200195312e+02, 2.934474792480469e+02, 2.934565734863281e+02, 2.936642761230469e+02, 2.936893920898438e+02, 2.93704345703125e+02, 2.937188110351562e+02, 2.9373486328125e+02, 2.937428283691406e+02, 2.937515258789062e+02, 2.937440490722656e+02, 2.9370556640625e+02, 2.93507080078125e+02, 2.932572937011719e+02, 2.93147216796875e+02, 2.9337255859375e+02, 2.93292236328125e+02, 2.932012329101562e+02, 2.931071166992188e+02, 2.930211181640625e+02, 2.92974853515625e+02, 2.929577941894531e+02, 2.929382934570312e+02, 2.929334106445312e+02, 2.928828735351562e+02, 2.927340393066406e+02]
flo.eas.air.vol.T=[2.931499938964844e+02, 2.923704528808594e+02, 2.922000427246094e+02, 2.920866088867188e+02, 2.919882202148438e+02, 2.918887329101562e+02, 2.918062438964844e+02, 2.917197570800781e+02, 2.916097412109375e+02, 2.915047912597656e+02, 2.914184875488281e+02, 2.913346862792969e+02, 2.930582885742188e+02, 2.931651611328125e+02, 2.931537475585938e+02, 2.931521911621094e+02, 2.931575927734375e+02, 2.931981506347656e+02, 2.931852722167969e+02, 2.931623840332031e+02, 2.931570739746094e+02, 2.931744995117188e+02, 2.931505432128906e+02, 2.931499938964844e+02, 2.931500854492188e+02, 2.931502685546875e+02, 2.931500549316406e+02, 2.931502075195312e+02, 2.931511840820312e+02, 2.931508483886719e+02, 2.931501159667969e+02, 2.931486511230469e+02, 2.931495056152344e+02, 2.931499938964844e+02, 2.931494750976562e+02, 2.931506042480469e+02, 2.931470947265625e+02, 2.931455078125e+02, 2.931341247558594e+02, 2.931370849609375e+02, 2.929807434082031e+02, 2.929906005859375e+02, 2.928655700683594e+02, 2.928662414550781e+02, 2.928914184570312e+02, 2.927220458984375e+02, 2.926924743652344e+02, 2.926102600097656e+02, 2.925218505859375e+02, 2.924414367675781e+02, 2.923678894042969e+02, 2.922902526855469e+02, 2.92204345703125e+02, 2.921286010742188e+02, 2.920567321777344e+02, 2.919912109375e+02, 2.919224243164062e+02, 2.918543395996094e+02, 2.916856689453125e+02, 2.91643798828125e+02, 2.9170458984375e+02, 2.9165576171875e+02, 2.932401733398438e+02, 2.931677551269531e+02, 2.931564331054688e+02, 2.931528625488281e+02, 2.931515197753906e+02, 2.931723327636719e+02, 2.931791381835938e+02, 2.931615600585938e+02, 2.931547241210938e+02, 2.931501770019531e+02, 2.931547241210938e+02, 2.93154541015625e+02, 2.9315478515625e+02, 2.931550598144531e+02, 2.931442565917969e+02, 2.931535034179688e+02, 2.93154541015625e+02, 2.931521301269531e+02, 2.931492309570312e+02, 2.931497192382812e+02, 2.930886840820312e+02, 2.931463012695312e+02, 2.931400146484375e+02, 2.932483520507812e+02, 2.931329040527344e+02, 2.931650390625e+02, 2.9313525390625e+02, 2.931396484375e+02, 2.926239624023438e+02, 2.925692443847656e+02, 2.925100402832031e+02, 2.92379638671875e+02, 2.922632751464844e+02, 2.922183532714844e+02, 2.922370300292969e+02, 2.92400146484375e+02, 2.924351196289062e+02, 2.9237353515625e+02, 2.922586059570312e+02]
flo.nor.air.vol.T=[2.931499938964844e+02, 2.923512268066406e+02, 2.921884765625e+02, 2.920765686035156e+02, 2.919789123535156e+02, 2.918795776367188e+02, 2.917953491210938e+02, 2.917080688476562e+02, 2.915999145507812e+02, 2.914970397949219e+02, 2.914114074707031e+02, 2.913275146484375e+02, 2.931220703125e+02, 2.931765441894531e+02, 2.931573791503906e+02, 2.931517333984375e+02, 2.93153564453125e+02, 2.931909790039062e+02, 2.932044067382812e+02, 2.931634216308594e+02, 2.931553649902344e+02, 2.931555480957031e+02, 2.931580505371094e+02, 2.931565856933594e+02, 2.931569213867188e+02, 2.931556396484375e+02, 2.931532287597656e+02, 2.931541137695312e+02, 2.931711730957031e+02, 2.931526489257812e+02, 2.931503295898438e+02, 2.931492919921875e+02, 2.931489562988281e+02, 2.931482849121094e+02, 2.931367797851562e+02, 2.9308837890625e+02, 2.931313781738281e+02, 2.931288452148438e+02, 2.931244812011719e+02, 2.931363830566406e+02, 2.927562561035156e+02, 2.927485961914062e+02, 2.926944580078125e+02, 2.9263671875e+02, 2.926528015136719e+02, 2.925817565917969e+02, 2.92474609375e+02, 2.923878479003906e+02, 2.922980651855469e+02, 2.9221728515625e+02, 2.921459045410156e+02, 2.920713806152344e+02, 2.91987548828125e+02, 2.919147338867188e+02, 2.918466491699219e+02, 2.9178515625e+02, 2.917204895019531e+02, 2.916643981933594e+02, 2.916173706054688e+02, 2.915788269042969e+02, 2.915272827148438e+02, 2.914793090820312e+02, 2.932043151855469e+02, 2.932027893066406e+02, 2.931689758300781e+02, 2.931592407226562e+02, 2.931553955078125e+02, 2.931897277832031e+02, 2.9320654296875e+02, 2.931676940917969e+02, 2.931573791503906e+02, 2.9315673828125e+02, 2.931572570800781e+02, 2.931568298339844e+02, 2.931566162109375e+02, 2.931559143066406e+02, 2.931401062011719e+02, 2.931561889648438e+02, 2.9310400390625e+02, 2.931466674804688e+02, 2.931537475585938e+02, 2.931552734375e+02, 2.932069091796875e+02, 2.931502990722656e+02, 2.931498718261719e+02, 2.931488342285156e+02, 2.931472473144531e+02, 2.930358276367188e+02, 2.931325073242188e+02, 2.9313720703125e+02, 2.927557983398438e+02, 2.926697082519531e+02, 2.925932312011719e+02, 2.925193786621094e+02, 2.92449951171875e+02, 2.924045104980469e+02, 2.923816528320312e+02, 2.922992553710938e+02, 2.92342041015625e+02, 2.922922058105469e+02, 2.920191650390625e+02]
eas.vav.m_flow=[0e+00, 3.493670010357164e-05, 3.165801535942592e-05, 3.20271028613206e-05, 2.958597360702697e-05, 3.033356006199028e-05, 3.547477172105573e-05, 3.627311161835677e-05, 3.220733560738154e-05, 3.110145189566538e-05, 3.297726652817801e-05, 3.324489443912171e-05, 3.5917067527771e-01, 3.502809107303619e-01, 3.503098487854004e-01, 3.502302765846252e-01, 3.502462804317474e-01, 3.504550158977509e-01, 3.85805755853653e-01, 3.860259056091309e-01, 3.824522495269775e-01, 3.473777174949646e-01, 1.317020803689957e-01, 1.380535364151001e-01, 1.380811035633087e-01, 1.380746513605118e-01, 1.380652785301208e-01, 1.380511522293091e-01, 1.390086710453034e-01, 1.465110629796982e-01, 1.463991105556488e-01, 1.462658643722534e-01, 1.461322903633118e-01, 1.462254971265793e-01, 1.467584669589996e-01, 1.453148275613785e-01, 1.450993418693542e-01, 1.361343264579773e-01, 4.002637267112732e-01, 4.003482758998871e-01, 7.153498154366389e-05, 6.398747063940391e-05, 8.149266068357974e-05, 8.301772322738543e-05, 7.407768134726211e-05, 1.026409372570924e-04, 6.958614540053532e-05, 7.316099072340876e-05, 7.110568549251184e-05, 7.128958532121032e-05, 7.387406367342919e-05, 7.223452121252194e-05, 6.35581964161247e-05, 4.990274101146497e-05, 4.139251541346312e-05, 3.666857446660285e-05, 3.458766514086163e-05, 3.530056710587807e-05, 5.050619074609131e-05, 3.222646773792803e-05, 1.315561530645937e-05, 1.834191971283872e-05, 3.656120896339417e-01, 3.50376695394516e-01, 3.502930998802185e-01, 3.502948582172394e-01, 3.503004014492035e-01, 3.508426249027252e-01, 3.8603276014328e-01, 3.85979175567627e-01, 3.859433531761169e-01, 3.859847784042358e-01, 3.860586583614349e-01, 3.856736421585083e-01, 3.839956521987915e-01, 3.775865435600281e-01, 4.005741775035858e-01, 3.971066474914551e-01, 1.430918127298355e-01, 1.457326412200928e-01, 1.459641456604004e-01, 1.464100480079651e-01, 2.396336048841476e-01, 4.376422762870789e-01, 4.386729001998901e-01, 4.017384052276611e-01, 1.484135985374451e-01, 3.969212770462036e-01, 3.859916925430298e-01, 3.859842717647552e-01, 1.181585830636322e-04, 1.093462269636802e-04, 1.018835391732864e-04, 1.163089618785307e-04, 1.321200834354386e-04, 1.404312060913071e-04, 1.124466434703209e-04, 1.192648051073775e-05, 9.669049177318811e-06, 1.192010313388892e-05, 2.20841739064781e-05]
wes.vav.m_flow=[0e+00, 1.111914461944252e-04, 1.141946122515947e-04, 1.140126114478335e-04, 1.071447986760177e-04, 9.645208774600178e-05, 7.972278399392962e-05, 7.789488154230641e-05, 8.349811105290428e-05, 8.559760317439213e-05, 9.759297245182097e-05, 8.789514686213806e-05, 3.154743313789368e-01, 3.066418468952179e-01, 3.06673526763916e-01, 3.065952360630035e-01, 3.066116571426392e-01, 3.068207502365112e-01, 3.41826468706131e-01, 3.420419096946716e-01, 3.423268795013428e-01, 3.452807366847992e-01, 3.6236372590065e-01, 3.766531646251678e-01, 3.767143785953522e-01, 3.766987919807434e-01, 3.766807615756989e-01, 3.766486644744873e-01, 3.804462254047394e-01, 4.110722243785858e-01, 4.108166694641113e-01, 4.104576706886292e-01, 4.094070196151733e-01, 4.032317996025085e-01, 3.572012186050408e-01, 1.320785284042372e-01, 1.316013634204865e-01, 3.757612109184265e-01, 3.560900986194611e-01, 3.561738431453705e-01, 4.660517151933163e-05, 4.167954830336384e-05, 3.779386679525487e-05, 4.341990643297322e-05, 4.571571844280697e-05, 4.031092612422071e-05, 5.330006024450995e-05, 6.350834883050993e-05, 6.058166036382318e-05, 5.990258068777621e-05, 6.184139056131244e-05, 6.584099173778668e-05, 7.175025530159473e-05, 7.246932364068925e-05, 6.826019671279937e-05, 6.940860475879164e-05, 7.092637679306792e-05, 7.517883204855021e-05, 7.57262168917805e-05, 7.801227911841124e-05, 6.570728874066845e-05, 5.028800296713598e-05, 3.218593299388885e-01, 3.067390322685242e-01, 3.066563904285431e-01, 3.066590130329132e-01, 3.066648244857788e-01, 3.072042167186737e-01, 3.420496582984924e-01, 3.419960141181946e-01, 3.419609069824219e-01, 3.420017957687378e-01, 3.42074066400528e-01, 3.420376479625702e-01, 3.41958612203598e-01, 3.424981832504272e-01, 3.563522100448608e-01, 3.555475473403931e-01, 2.423850744962692e-01, 1.325675249099731e-01, 1.330069899559021e-01, 1.338450014591217e-01, 1.369168758392334e-01, 1.387335211038589e-01, 1.390683352947235e-01, 1.342955529689789e-01, 1.417576223611832e-01, 2.276080697774887e-01, 3.420093655586243e-01, 3.420023918151855e-01, 2.409025000815745e-06, 9.26458142203046e-07, 1.440991923118418e-06, -2.074893018289004e-06, -3.094768999289954e-06, 8.450892892142292e-07, 7.709262717980891e-06, 1.856590824900195e-05, 2.424735612294171e-05, 2.408154614386149e-05, 3.64073712262325e-05]
sou.vav.m_flow=[0e+00, 5.803260137327015e-05, 4.98454064654652e-05, 4.842896305490285e-05, 7.266139436978847e-05, 8.696233999216929e-05, 9.374944784212857e-05, 1.070130601874553e-04, 1.278374111279845e-04, 1.320584560744464e-04, 1.134476769948378e-04, 1.313552638748661e-04, 4.42181795835495e-01, 4.321362972259521e-01, 4.321708679199219e-01, 4.320794939994812e-01, 4.320934414863586e-01, 4.323259592056274e-01, 4.72200334072113e-01, 4.724527597427368e-01, 4.726247787475586e-01, 4.745073020458221e-01, 4.811884462833405e-01, 1.682018339633942e-01, 1.682263314723969e-01, 1.682138592004776e-01, 1.682053655385971e-01, 1.681894212961197e-01, 1.687946021556854e-01, 1.732929348945618e-01, 1.731650829315186e-01, 1.730189174413681e-01, 1.728645861148834e-01, 1.72874853014946e-01, 1.731459647417068e-01, 1.722258329391479e-01, 1.721591502428055e-01, 1.677309423685074e-01, 1.625888794660568e-01, 1.626351326704025e-01, -1.828601489251014e-05, 1.848802276072092e-05, -4.087832166987937e-06, -6.663064414169639e-05, -6.22430452494882e-05, -6.454409594880417e-05, 2.044834036496468e-05, 3.635367829701863e-05, 4.114590774406679e-05, 4.330793672124855e-05, 4.969972360413522e-05, 5.625905760098249e-05, 5.191030868445523e-05, 7.692214421695098e-05, 9.339531970908865e-05, 9.490999218542133e-05, 9.771962504601102e-05, 7.418628229061177e-05, 3.066399222007021e-05, 3.92252768506296e-05, 8.75052937772125e-05, 3.879755968227983e-05, 4.49445515871048e-01, 4.322422444820404e-01, 4.321487247943878e-01, 4.321513772010803e-01, 4.321583807468414e-01, 4.327702820301056e-01, 4.724603295326233e-01, 4.72400039434433e-01, 4.723599255084991e-01, 4.724068343639374e-01, 4.72489595413208e-01, 4.724346399307251e-01, 4.723861217498779e-01, 4.574480354785919e-01, 1.629115343093872e-01, 1.626986712217331e-01, 1.709451675415039e-01, 1.72659158706665e-01, 1.727805733680725e-01, 1.730193197727203e-01, 1.737670004367828e-01, 1.725171804428101e-01, 1.728927940130234e-01, 4.990499019622803e-01, 5.086045265197754e-01, 4.781199097633362e-01, 4.72417801618576e-01, 4.724091291427612e-01, 1.203831197926775e-04, 1.261606812477112e-04, 1.290457585128024e-04, 1.213785872096196e-04, 1.05728795460891e-04, 7.134523912100121e-05, 5.649472586810589e-05, 6.937995931366459e-05, 7.471667049685493e-05, 8.413560135522857e-05, 5.339610288501717e-05]
cor.vav.m_flow_turbulent=[1.618800044059753e+00, 1.618800044059753e+00]
nor.vav.m_flow=[0e+00, 1.145894202636555e-05, 5.257802968117176e-06, 6.361560735967942e-06, 6.007121100992663e-06, 8.544529919163324e-06, 1.682629408605862e-05, 1.806164436857215e-05, 1.209730453410884e-05, 9.924642654368654e-06, 9.678902642917819e-06, 1.092225193133345e-05, 3.488107919692993e-01, 3.390434980392456e-01, 3.390795290470123e-01, 3.389957547187805e-01, 3.390160501003265e-01, 3.392475247383118e-01, 3.779522180557251e-01, 3.781948387622833e-01, 3.785098493099213e-01, 3.817808926105499e-01, 4.006705284118652e-01, 4.164694547653198e-01, 4.165377616882324e-01, 4.165213108062744e-01, 4.16500598192215e-01, 4.164652824401855e-01, 3.892651498317715e-01, 1.477898359298706e-01, 1.476650685071945e-01, 1.475187838077545e-01, 1.473900526762009e-01, 1.476577967405319e-01, 1.748723238706603e-01, 4.385999143123617e-01, 4.491271674633026e-01, 4.154800772666931e-01, 3.937294483184814e-01, 3.938209712505341e-01, 1.288270432269201e-04, 1.298708521062508e-04, 1.267629850190133e-04, 1.411738194292411e-04, 1.366920478176326e-04, 1.320429582847282e-04, 8.170450018951669e-05, 4.390750473248772e-05, 4.102566163055599e-05, 3.933426341973245e-05, 3.828413900919259e-05, 3.931723040295765e-05, 4.110753798158839e-05, 3.904544428223744e-05, 3.782982821576297e-05, 3.713246042025276e-05, 3.763297354453243e-05, 3.641486546257513e-05, 3.562558413250372e-05, 3.319307506899349e-05, 3.562092024367303e-05, 3.614200977608562e-05, 3.558849990367889e-01, 3.391580581665039e-01, 3.390692174434662e-01, 3.390725255012512e-01, 3.390794098377228e-01, 3.396744430065155e-01, 3.782010674476624e-01, 3.781444132328033e-01, 3.781057000160217e-01, 3.781510293483734e-01, 3.782309591770172e-01, 3.78191351890564e-01, 3.78219336271286e-01, 3.79495233297348e-01, 3.94250363111496e-01, 3.937165439128876e-01, 3.942033052444458e-01, 4.366854131221771e-01, 4.284036457538605e-01, 4.127203822135925e-01, 3.140875101089478e-01, 1.53398871421814e-01, 1.537696421146393e-01, 1.484908908605576e-01, 1.567414700984955e-01, 3.447244465351105e-01, 3.78160148859024e-01, 3.781515657901764e-01, 6.974083953537047e-05, 7.216313679236919e-05, 7.067058322718367e-05, 6.831748032709584e-05, 6.828491314081475e-05, 7.167707371991128e-05, 7.449127588188276e-05, 1.086804986698553e-04, 9.528906230116263e-05, 9.333148773293942e-05, 1.157732331193984e-04]
eas.TSup.T=[2.931499938964844e+02, 2.9362646484375e+02, 2.936279296875e+02, 2.936288757324219e+02, 2.9362939453125e+02, 2.936297607421875e+02, 2.936288452148438e+02, 2.936264953613281e+02, 2.93624267578125e+02, 2.936224060058594e+02, 2.936199035644531e+02, 2.936165466308594e+02, 2.994161071777344e+02, 3.003597412109375e+02, 3.002202453613281e+02, 3.001908264160156e+02, 3.000066833496094e+02, 2.986475524902344e+02, 2.954967346191406e+02, 2.932232971191406e+02, 2.923601379394531e+02, 2.918492736816406e+02, 2.881097106933594e+02, 2.880574645996094e+02, 2.878883056640625e+02, 2.875431518554688e+02, 2.891607360839844e+02, 2.889286499023438e+02, 2.844332885742188e+02, 2.841798400878906e+02, 2.837010803222656e+02, 2.843885192871094e+02, 2.852946472167969e+02, 2.85313232421875e+02, 2.872007751464844e+02, 2.868038330078125e+02, 2.882870483398438e+02, 2.912262573242188e+02, 2.933885498046875e+02, 2.948052978515625e+02, 3.024909057617188e+02, 3.012673645019531e+02, 3.002200317382812e+02, 2.982138366699219e+02, 2.970558166503906e+02, 2.958671569824219e+02, 2.945285034179688e+02, 2.937797241210938e+02, 2.930767822265625e+02, 2.924548950195312e+02, 2.918507080078125e+02, 2.912757263183594e+02, 2.908252563476562e+02, 2.90551025390625e+02, 2.904013671875e+02, 2.903042297363281e+02, 2.902291259765625e+02, 2.901631774902344e+02, 2.8997509765625e+02, 2.898809509277344e+02, 2.898635864257812e+02, 2.898586120605469e+02, 2.988835754394531e+02, 2.992226257324219e+02, 2.989614562988281e+02, 2.98798828125e+02, 2.987109985351562e+02, 2.982965393066406e+02, 2.964336242675781e+02, 2.94726318359375e+02, 2.940327453613281e+02, 2.937245788574219e+02, 2.932389831542969e+02, 2.928409423828125e+02, 2.92491943359375e+02, 2.921609802246094e+02, 2.928781433105469e+02, 2.923881530761719e+02, 2.892901916503906e+02, 2.896843566894531e+02, 2.906083068847656e+02, 2.908504333496094e+02, 2.916748352050781e+02, 2.92917236328125e+02, 2.934238891601562e+02, 2.920051574707031e+02, 2.908202514648438e+02, 2.947220153808594e+02, 2.956823120117188e+02, 2.965333251953125e+02, 3.038302917480469e+02, 3.008168334960938e+02, 2.984953918457031e+02, 2.964261169433594e+02, 2.943348388671875e+02, 2.924275207519531e+02, 2.90878662109375e+02, 2.905588684082031e+02, 2.905582275390625e+02, 2.905572814941406e+02, 2.905501708984375e+02]
nor.TSup.T=[2.931499938964844e+02, 2.934514770507812e+02, 2.934533996582031e+02, 2.934548645019531e+02, 2.934565734863281e+02, 2.934582214355469e+02, 2.934607238769531e+02, 2.934634399414062e+02, 2.934659118652344e+02, 2.93468017578125e+02, 2.93469970703125e+02, 2.93471923828125e+02, 3.038428039550781e+02, 3.044775695800781e+02, 3.041396484375e+02, 3.041031799316406e+02, 3.040415954589844e+02, 3.035929565429688e+02, 3.003798522949219e+02, 2.977372436523438e+02, 2.970601196289062e+02, 2.964219055175781e+02, 2.957232360839844e+02, 2.950543518066406e+02, 2.943905334472656e+02, 2.938172912597656e+02, 2.941605224609375e+02, 2.938421936035156e+02, 2.91934326171875e+02, 2.875744934082031e+02, 2.868814392089844e+02, 2.867120971679688e+02, 2.879488220214844e+02, 2.902856750488281e+02, 2.908739624023438e+02, 2.921395568847656e+02, 2.929459838867188e+02, 2.939112243652344e+02, 2.9494384765625e+02, 2.960735168457031e+02, 3.032265319824219e+02, 3.001685180664062e+02, 2.976360473632812e+02, 2.954436645507812e+02, 2.935000610351562e+02, 2.918961486816406e+02, 2.908887939453125e+02, 2.906500549316406e+02, 2.905543212890625e+02, 2.904695739746094e+02, 2.903945922851562e+02, 2.903219604492188e+02, 2.902398376464844e+02, 2.901609497070312e+02, 2.900916748046875e+02, 2.90029052734375e+02, 2.899671325683594e+02, 2.899067077636719e+02, 2.898538818359375e+02, 2.898058471679688e+02, 2.8976025390625e+02, 2.897074890136719e+02, 3.048704528808594e+02, 3.047551879882812e+02, 3.039414672851562e+02, 3.035267639160156e+02, 3.032772521972656e+02, 3.0274267578125e+02, 2.99477294921875e+02, 2.967354736328125e+02, 2.957945556640625e+02, 2.951226196289062e+02, 2.945104370117188e+02, 2.938722534179688e+02, 2.932821350097656e+02, 2.92689208984375e+02, 2.9295947265625e+02, 2.9277392578125e+02, 2.918226928710938e+02, 2.921061401367188e+02, 2.920018920898438e+02, 2.918760070800781e+02, 2.91458740234375e+02, 2.86473876953125e+02, 2.858810119628906e+02, 2.860438842773438e+02, 2.883625183105469e+02, 2.916121520996094e+02, 2.947949829101562e+02, 2.960637512207031e+02, 3.035656127929688e+02, 3.023387451171875e+02, 3.012206420898438e+02, 3.00232421875e+02, 2.993369445800781e+02, 2.984571228027344e+02, 2.975550231933594e+02, 2.962253723144531e+02, 2.9485888671875e+02, 2.937725524902344e+02, 2.928838500976562e+02]
sou.TSup.T=[2.931499938964844e+02, 2.9337744140625e+02, 2.933852233886719e+02, 2.933912963867188e+02, 2.933970642089844e+02, 2.934044799804688e+02, 2.93412353515625e+02, 2.934207153320312e+02, 2.934295043945312e+02, 2.934348449707031e+02, 2.934412536621094e+02, 2.9344677734375e+02, 3.033400573730469e+02, 3.050089111328125e+02, 3.055062866210938e+02, 3.059701843261719e+02, 3.055757446289062e+02, 3.041305236816406e+02, 2.999438781738281e+02, 2.966172180175781e+02, 2.959682922363281e+02, 2.943192443847656e+02, 2.924019165039062e+02, 2.844916076660156e+02, 2.833917541503906e+02, 2.832959899902344e+02, 2.832619018554688e+02, 2.832521057128906e+02, 2.83259521484375e+02, 2.833392028808594e+02, 2.83337890625e+02, 2.832749328613281e+02, 2.832540283203125e+02, 2.832499694824219e+02, 2.832595825195312e+02, 2.832183837890625e+02, 2.832358703613281e+02, 2.831288146972656e+02, 2.830476684570312e+02, 2.86195068359375e+02, 2.963144226074219e+02, 2.962973327636719e+02, 2.962742309570312e+02, 2.960852661132812e+02, 2.958380126953125e+02, 2.956129760742188e+02, 2.955239868164062e+02, 2.954219360351562e+02, 2.952398071289062e+02, 2.95032470703125e+02, 2.947821044921875e+02, 2.944477233886719e+02, 2.941180114746094e+02, 2.937030029296875e+02, 2.928693542480469e+02, 2.920172424316406e+02, 2.912029418945312e+02, 2.905700988769531e+02, 2.904091491699219e+02, 2.903759765625e+02, 2.900352172851562e+02, 2.897945556640625e+02, 3.012163391113281e+02, 3.007987976074219e+02, 3.003855895996094e+02, 3.000961608886719e+02, 3.001045532226562e+02, 2.999972229003906e+02, 2.983911743164062e+02, 2.965827941894531e+02, 2.956387329101562e+02, 2.949594116210938e+02, 2.946302795410156e+02, 2.942975158691406e+02, 2.934631042480469e+02, 2.921075134277344e+02, 2.843721313476562e+02, 2.865362548828125e+02, 2.8539013671875e+02, 2.888338317871094e+02, 2.886520080566406e+02, 2.87689453125e+02, 2.869302062988281e+02, 2.84658203125e+02, 2.866055603027344e+02, 2.943345642089844e+02, 2.956264038085938e+02, 2.93927734375e+02, 2.945611572265625e+02, 2.959396057128906e+02, 3.040054626464844e+02, 3.010045471191406e+02, 2.983675537109375e+02, 2.961672058105469e+02, 2.945225830078125e+02, 2.935504150390625e+02, 2.932034301757812e+02, 2.927895202636719e+02, 2.922728271484375e+02, 2.917528991699219e+02, 2.912485656738281e+02]
wes.TSup.T=[2.931499938964844e+02, 2.934963073730469e+02, 2.934937744140625e+02, 2.934910278320312e+02, 2.934895629882812e+02, 2.934893798828125e+02, 2.934886474609375e+02, 2.934866943359375e+02, 2.934845886230469e+02, 2.934822082519531e+02, 2.934810485839844e+02, 2.934800415039062e+02, 3.026150512695312e+02, 3.023123474121094e+02, 3.016126403808594e+02, 3.015749816894531e+02, 3.015004577636719e+02, 3.010456848144531e+02, 2.9862158203125e+02, 2.968829650878906e+02, 2.979547729492188e+02, 2.991663208007812e+02, 2.979833984375e+02, 2.968924560546875e+02, 2.966269836425781e+02, 2.963601989746094e+02, 2.967671508789062e+02, 2.964004211425781e+02, 2.946136474609375e+02, 2.941177978515625e+02, 2.934939575195312e+02, 2.930520629882812e+02, 2.926861267089844e+02, 2.92237060546875e+02, 2.917380981445312e+02, 2.886419677734376e+02, 2.903575439453125e+02, 2.933070068359375e+02, 2.94236572265625e+02, 2.951779174804688e+02, 3.02802978515625e+02, 3.022983093261719e+02, 3.018412780761719e+02, 3.014399108886719e+02, 3.009204406738281e+02, 3.004518127441406e+02, 3.000036315917969e+02, 2.991549377441406e+02, 2.983089599609375e+02, 2.975706176757812e+02, 2.968541259765625e+02, 2.961122436523438e+02, 2.95305908203125e+02, 2.944544677734375e+02, 2.937437744140625e+02, 2.930920715332031e+02, 2.924761352539062e+02, 2.918647766113281e+02, 2.912820434570312e+02, 2.90672119140625e+02, 2.90198974609375e+02, 2.899534606933594e+02, 3.020082397460938e+02, 3.017118835449219e+02, 3.009340515136719e+02, 3.004397583007812e+02, 3.002932739257812e+02, 2.998056640625e+02, 2.975452575683594e+02, 2.95649169921875e+02, 2.948913269042969e+02, 2.943837280273438e+02, 2.93918212890625e+02, 2.934383239746094e+02, 2.929921569824219e+02, 2.925432739257812e+02, 2.928262329101562e+02, 2.926224975585938e+02, 2.912435302734375e+02, 2.862775268554688e+02, 2.86032958984375e+02, 2.877393188476562e+02, 2.876589050292969e+02, 2.86401611328125e+02, 2.860319519042969e+02, 2.860933837890625e+02, 2.88082763671875e+02, 2.917131652832031e+02, 2.942728271484375e+02, 2.952345581054688e+02, 3.028888549804688e+02, 3.028887939453125e+02, 3.028886413574219e+02, 3.028882141113281e+02, 3.028846435546875e+02, 3.028829650878906e+02, 3.02879638671875e+02, 3.0282666015625e+02, 3.026977844238281e+02, 3.025433044433594e+02, 3.020296325683594e+02]
cor.TSup.T=[2.931499938964844e+02, 2.933270263671875e+02, 2.933103637695312e+02, 2.932928466796875e+02, 2.932726440429688e+02, 2.932479553222656e+02, 2.932202758789062e+02, 2.93189697265625e+02, 2.931540222167969e+02, 2.931137390136719e+02, 2.930742797851562e+02, 2.930334777832031e+02, 2.918080749511719e+02, 2.932281799316406e+02, 2.932106628417969e+02, 2.931846618652344e+02, 2.931657104492188e+02, 2.926547241210938e+02, 2.86769287109375e+02, 2.837677917480469e+02, 2.834364318847656e+02, 2.8332373046875e+02, 2.833807678222656e+02, 2.834419250488281e+02, 2.833892822265625e+02, 2.832949523925781e+02, 2.832615356445312e+02, 2.832520446777344e+02, 2.832599182128906e+02, 2.83343017578125e+02, 2.833359680175781e+02, 2.832740783691406e+02, 2.832537841796875e+02, 2.832499389648438e+02, 2.832600402832031e+02, 2.8321923828125e+02, 2.832359313964844e+02, 2.831266479492188e+02, 2.830487365722656e+02, 2.861412048339844e+02, 2.911958923339844e+02, 2.9118505859375e+02, 2.911737060546875e+02, 2.911636962890625e+02, 2.911549682617188e+02, 2.911461791992188e+02, 2.911361083984375e+02, 2.911260986328125e+02, 2.911178894042969e+02, 2.911099853515625e+02, 2.910959167480469e+02, 2.910732421875e+02, 2.910462036132812e+02, 2.910177917480469e+02, 2.909876098632812e+02, 2.909566345214844e+02, 2.909253234863281e+02, 2.908937377929688e+02, 2.908626098632812e+02, 2.9083349609375e+02, 2.908046264648438e+02, 2.907777709960938e+02, 2.919700317382812e+02, 2.927389221191406e+02, 2.929068603515625e+02, 2.929035949707031e+02, 2.929063720703125e+02, 2.924373168945312e+02, 2.860757751464843e+02, 2.837174987792969e+02, 2.834150085449219e+02, 2.83309326171875e+02, 2.832898864746094e+02, 2.832734069824219e+02, 2.83248291015625e+02, 2.832584838867188e+02, 2.833206176757812e+02, 2.833793640136719e+02, 2.8345849609375e+02, 2.834270935058594e+02, 2.833285522460938e+02, 2.832899780273438e+02, 2.832857971191406e+02, 2.832377319335938e+02, 2.83226318359375e+02, 2.830962219238281e+02, 2.832434997558594e+02, 2.830765380859375e+02, 2.830261840820312e+02, 2.859541015625e+02, 2.910250244140625e+02, 2.910097045898438e+02, 2.909944458007812e+02, 2.909794311523438e+02, 2.909651794433594e+02, 2.909522399902344e+02, 2.909404296875e+02, 2.909290466308594e+02, 2.909181823730469e+02, 2.909075012207031e+02, 2.908982849121094e+02]
