last-generated=2017-09-08
statistics-initialization=
{
  "numerical Jacobians": "0", 
  "nonlinear": "1, 3, 1, 1, 17"
}
statistics-simulation=
{
  "numerical Jacobians": "0", 
  "nonlinear": "1, 0, 1, 3", 
  "number of continuous time states": "36", 
  "linear": "0, 2"
}
wseCon.TWetBul=[2.844858093261719e+02, 2.834715576171875e+02, 2.830081176757812e+02, 2.828131103515625e+02, 2.849400634765625e+02, 2.8767724609375e+02, 2.8843408203125e+02, 2.897018127441406e+02, 2.908985595703125e+02, 2.890965576171875e+02, 2.873750610351562e+02, 2.870310668945312e+02, 2.850565490722656e+02, 2.844025268554688e+02, 2.846215209960938e+02, 2.85584716796875e+02, 2.844925842285156e+02, 2.850927429199219e+02, 2.872787780761719e+02, 2.895964050292969e+02, 2.900821838378906e+02, 2.907142028808594e+02, 2.902919311523438e+02, 2.930731811523438e+02, 2.90821044921875e+02, 2.897002868652344e+02, 2.878292541503906e+02, 2.864308776855469e+02, 2.858257446289062e+02, 2.848772583007812e+02, 2.845028381347656e+02, 2.841003723144531e+02, 2.848956604003906e+02, 2.86788330078125e+02, 2.895969543457031e+02, 2.904920654296875e+02, 2.898047180175781e+02, 2.892393188476562e+02, 2.886691284179688e+02, 2.876924133300781e+02, 2.86109130859375e+02, 2.854310913085938e+02, 2.85067138671875e+02, 2.846211547851562e+02, 2.8425341796875e+02, 2.839706420898438e+02, 2.83714111328125e+02, 2.850740661621094e+02, 2.861065368652344e+02, 2.872113342285156e+02, 2.876419067382812e+02, 2.873104553222656e+02, 2.873970031738281e+02, 2.86239013671875e+02, 2.8519189453125e+02, 2.844321594238281e+02, 2.840808715820312e+02, 2.840713806152344e+02, 2.836410827636719e+02, 2.833737182617188e+02, 2.843021850585938e+02, 2.866591186523438e+02, 2.888963012695312e+02, 2.899041748046875e+02, 2.917620544433594e+02, 2.920389709472656e+02, 2.900023498535156e+02, 2.879818725585938e+02, 2.860729370117188e+02, 2.851282043457031e+02, 2.844984436035156e+02, 2.84646240234375e+02, 2.840837097167969e+02, 2.839063415527344e+02, 2.838663330078125e+02, 2.845386047363281e+02, 2.870115661621094e+02, 2.886986083984375e+02, 2.89677734375e+02, 2.908424682617188e+02, 2.89357666015625e+02, 2.880846862792969e+02, 2.865106201171875e+02, 2.850302429199219e+02, 2.841634216308594e+02, 2.842227783203125e+02, 2.844867553710938e+02, 2.843226013183594e+02, 2.840713806152344e+02, 2.842268371582031e+02, 2.857822875976562e+02, 2.865521240234375e+02, 2.869639282226562e+02, 2.870909118652344e+02, 2.867579345703125e+02, 2.865088195800781e+02, 2.860401611328125e+02, 2.847579345703125e+02, 2.838851928710938e+02, 2.837900695800781e+02, 2.835923156738281e+02]
TAirSup.T=[2.931499938964844e+02, 3.001499938964844e+02, 3.001499938964844e+02, 3.001499938964844e+02, 3.001499938964844e+02, 3.001499938964844e+02, 3.001499938964844e+02, 3.001499938964844e+02, 3.001499938964844e+02, 3.001499938964844e+02, 3.001499938964844e+02, 3.001499938964844e+02, 3.001499938964844e+02, 3.001499938964844e+02, 3.001499938964844e+02, 3.001499938964844e+02, 3.001499938964844e+02, 3.001499938964844e+02, 3.001499938964844e+02, 3.001499938964844e+02, 3.001499938964844e+02, 3.001499938964844e+02, 3.001499938964844e+02, 3.001499938964844e+02, 3.001499938964844e+02, 3.001499938964844e+02, 3.001499938964844e+02, 3.001499938964844e+02, 3.001499938964844e+02, 3.001499938964844e+02, 3.001499938964844e+02, 3.001499938964844e+02, 3.001499938964844e+02, 3.001499938964844e+02, 3.001499938964844e+02, 3.001499938964844e+02, 3.001499938964844e+02, 3.001499938964844e+02, 3.001499938964844e+02, 3.001499938964844e+02, 3.001499938964844e+02, 3.001499938964844e+02, 3.001499938964844e+02, 3.001499938964844e+02, 3.001499938964844e+02, 3.001499938964844e+02, 3.001499938964844e+02, 3.001499938964844e+02, 3.001499938964844e+02, 3.001499938964844e+02, 3.001499938964844e+02, 3.001499938964844e+02, 3.001499938964844e+02, 3.001499938964844e+02, 3.001499938964844e+02, 3.001499938964844e+02, 3.001499938964844e+02, 3.001499938964844e+02, 3.001499938964844e+02, 3.001499938964844e+02, 3.001499938964844e+02, 3.001499938964844e+02, 3.001499938964844e+02, 3.001499938964844e+02, 3.001499938964844e+02, 3.001499938964844e+02, 3.001499938964844e+02, 3.001499938964844e+02, 3.001499938964844e+02, 3.001499938964844e+02, 3.001499938964844e+02, 3.001499938964844e+02, 3.001499938964844e+02, 3.001499938964844e+02, 3.001499938964844e+02, 3.001499938964844e+02, 3.001499938964844e+02, 3.001499938964844e+02, 3.001499938964844e+02, 3.001499938964844e+02, 3.001499938964844e+02, 3.001499938964844e+02, 3.001499938964844e+02, 3.001499938964844e+02, 3.001499938964844e+02, 3.001499938964844e+02, 3.001499938964844e+02, 3.001499938964844e+02, 3.001499938964844e+02, 3.001499938964844e+02, 3.001499938964844e+02, 3.001499938964844e+02, 3.001499938964844e+02, 3.001499938964844e+02, 3.001499938964844e+02, 3.001499938964844e+02, 3.001499938964844e+02, 3.001499938964844e+02, 3.001499938964844e+02, 3.001499938964844e+02, 3.001499938964844e+02]
time=[1.30464e+07, 1.36512e+07]
wseCon.y1=[0e+00, 1e+00, 1e+00, 1e+00, 1e+00, 1e+00, 1e+00, 1e+00, 1e+00, 1e+00, 1e+00, 1e+00, 1e+00, 1e+00, 1e+00, 1e+00, 1e+00, 1e+00, 1e+00, 1e+00, 1e+00, 1e+00, 1e+00, 1e+00, 1e+00, 1e+00, 1e+00, 1e+00, 1e+00, 1e+00, 1e+00, 1e+00, 1e+00, 1e+00, 1e+00, 1e+00, 1e+00, 1e+00, 1e+00, 1e+00, 1e+00, 1e+00, 1e+00, 1e+00, 1e+00, 1e+00, 1e+00, 1e+00, 1e+00, 1e+00, 1e+00, 1e+00, 1e+00, 1e+00, 1e+00, 1e+00, 1e+00, 1e+00, 1e+00, 1e+00, 1e+00, 1e+00, 1e+00, 1e+00, 1e+00, 1e+00, 1e+00, 1e+00, 1e+00, 1e+00, 1e+00, 1e+00, 1e+00, 1e+00, 1e+00, 1e+00, 1e+00, 1e+00, 1e+00, 1e+00, 1e+00, 1e+00, 1e+00, 1e+00, 1e+00, 1e+00, 1e+00, 1e+00, 1e+00, 1e+00, 1e+00, 1e+00, 1e+00, 1e+00, 1e+00, 1e+00, 1e+00, 1e+00, 1e+00, 1e+00, 1e+00]
chiCon.y=[0e+00, 1e+00, 1e+00, 1e+00, 1e+00, 1e+00, 1e+00, 1e+00, 1e+00, 1e+00, 1e+00, 1e+00, 1e+00, 1e+00, 1e+00, 1e+00, 1e+00, 1e+00, 1e+00, 1e+00, 1e+00, 1e+00, 1e+00, 1e+00, 1e+00, 1e+00, 1e+00, 1e+00, 1e+00, 1e+00, 1e+00, 1e+00, 1e+00, 1e+00, 1e+00, 1e+00, 1e+00, 1e+00, 1e+00, 1e+00, 1e+00, 1e+00, 1e+00, 1e+00, 1e+00, 1e+00, 1e+00, 1e+00, 1e+00, 1e+00, 1e+00, 1e+00, 1e+00, 1e+00, 1e+00, 1e+00, 1e+00, 1e+00, 1e+00, 1e+00, 1e+00, 1e+00, 1e+00, 1e+00, 1e+00, 1e+00, 1e+00, 1e+00, 1e+00, 1e+00, 1e+00, 1e+00, 1e+00, 1e+00, 1e+00, 1e+00, 1e+00, 1e+00, 1e+00, 1e+00, 1e+00, 1e+00, 1e+00, 1e+00, 1e+00, 1e+00, 1e+00, 1e+00, 1e+00, 1e+00, 1e+00, 1e+00, 1e+00, 1e+00, 1e+00, 1e+00, 1e+00, 1e+00, 1e+00, 1e+00, 1e+00]
pumCHW.m_flow=[4.995555877685547e+00, 7.858965873718262e+00, 7.858965873718262e+00, 7.858965873718262e+00, 7.858965873718262e+00, 7.858965873718262e+00, 7.858965873718262e+00, 7.858965873718262e+00, 7.858965873718262e+00, 7.858965873718262e+00, 7.858965873718262e+00, 7.858965873718262e+00, 7.858965873718262e+00, 7.858965873718262e+00, 7.858965873718262e+00, 7.858965873718262e+00, 7.858965873718262e+00, 7.858965873718262e+00, 7.858965873718262e+00, 7.858965873718262e+00, 7.858965873718262e+00, 7.858965873718262e+00, 7.858965873718262e+00, 7.858965873718262e+00, 7.858965873718262e+00, 7.858965873718262e+00, 7.858965873718262e+00, 7.858965873718262e+00, 7.858965873718262e+00, 7.858965873718262e+00, 7.858965873718262e+00, 7.858965873718262e+00, 7.858965873718262e+00, 7.858965873718262e+00, 7.858965873718262e+00, 7.858965873718262e+00, 7.858965873718262e+00, 7.858965873718262e+00, 7.858965873718262e+00, 7.858965873718262e+00, 7.858965873718262e+00, 7.858965873718262e+00, 7.858965873718262e+00, 7.858965873718262e+00, 7.858965873718262e+00, 7.858965873718262e+00, 7.858965873718262e+00, 7.858965873718262e+00, 7.858965873718262e+00, 7.858965873718262e+00, 7.858965873718262e+00, 7.858965873718262e+00, 7.858965873718262e+00, 7.858965873718262e+00, 7.858965873718262e+00, 7.858965873718262e+00, 7.858965873718262e+00, 7.858965873718262e+00, 7.858965873718262e+00, 7.858965873718262e+00, 7.858965873718262e+00, 7.858965873718262e+00, 7.858965873718262e+00, 7.858965873718262e+00, 7.858965873718262e+00, 7.858965873718262e+00, 7.858965873718262e+00, 7.858965873718262e+00, 7.858965873718262e+00, 7.858965873718262e+00, 7.858965873718262e+00, 7.858965873718262e+00, 7.858965873718262e+00, 7.858965873718262e+00, 7.858965873718262e+00, 7.858965873718262e+00, 7.858965873718262e+00, 7.858965873718262e+00, 7.858965873718262e+00, 7.858965873718262e+00, 7.858965873718262e+00, 7.858965873718262e+00, 7.858965873718262e+00, 7.858965873718262e+00, 7.858965873718262e+00, 7.858965873718262e+00, 7.858965873718262e+00, 7.858965873718262e+00, 7.858965873718262e+00, 7.858965873718262e+00, 7.858965873718262e+00, 7.858965873718262e+00, 7.858965873718262e+00, 7.858965873718262e+00, 7.858965873718262e+00, 7.858965873718262e+00, 7.858965873718262e+00, 7.858965873718262e+00, 7.858965873718262e+00, 7.858965873718262e+00, 7.858965873718262e+00]
